﻿gsk001,2013-12-03 19:12:07,2013-12-03 21:53:33,2時間41分26秒
gsk001,2013-12-03 21:53:33,2013-12-04 07:09:17,9時間15分44秒
gsk001,2013-12-04 08:08:43,2013-12-04 17:26:06,9時間17分23秒
gsk001,2013-12-04 18:39:07,2013-12-04 18:55:06,15分59秒
gsk001,2013-12-04 18:58:53,2013-12-05 07:21:39,12時間22分46秒
gsk001,2013-12-05 07:28:19,2013-12-05 07:34:04,5分45秒
gsk001,2013-12-05 08:26:45,2013-12-05 17:39:13,9時間12分28秒
gsk001,2013-12-05 17:44:21,2013-12-05 18:26:51,42分30秒
gsk001,2013-12-05 19:12:13,2013-12-06 07:15:39,12時間3分26秒
gsk001,2013-12-06 08:03:30,2013-12-06 17:31:07,9時間27分37秒
gsk001,2013-12-06 17:34:32,2013-12-06 17:46:34,12分2秒
gsk001,2013-12-06 18:58:31,2013-12-06 19:16:52,18分21秒
gsk001,2013-12-06 19:20:54,2013-12-06 22:40:53,3時間19分59秒
gsk001,2013-12-06 22:52:29,2013-12-07 09:39:39,10時間47分10秒
gsk001,2013-12-07 09:52:52,2013-12-07 10:13:01,20分9秒
gsk001,2013-12-07 10:13:01,2013-12-07 10:29:21,16分20秒
gsk001,2013-12-07 10:29:21,2013-12-07 10:37:41,8分20秒
gsk001,2013-12-07 10:37:41,2013-12-07 10:59:45,22分4秒
gsk001,2013-12-07 10:59:45,2013-12-07 11:06:22,6分37秒
gsk001,2013-12-07 11:06:22,2013-12-07 11:22:34,16分12秒
gsk001,2013-12-07 11:22:34,2013-12-07 11:34:51,12分17秒
gsk001,2013-12-07 11:42:54,2013-12-07 11:50:55,8分1秒
gsk001,2013-12-07 11:50:55,2013-12-07 12:01:32,10分37秒
gsk001,2013-12-07 12:08:45,2013-12-07 12:17:16,8分31秒
gsk001,2013-12-07 13:38:38,2013-12-07 13:48:09,9分31秒
gsk001,2013-12-07 13:48:09,2013-12-07 13:55:11,7分2秒
gsk001,2013-12-07 13:55:11,2013-12-07 14:16:01,20分50秒
gsk001,2013-12-07 14:16:01,2013-12-07 14:27:45,11分44秒
gsk001,2013-12-07 14:27:45,2013-12-07 14:46:07,18分22秒
gsk001,2013-12-07 14:46:07,2013-12-07 15:13:56,27分49秒
gsk001,2013-12-07 15:56:04,2013-12-07 16:06:18,10分14秒
gsk001,2013-12-07 16:15:03,2013-12-07 16:20:14,5分11秒
gsk001,2013-12-07 16:45:51,2013-12-07 17:21:48,35分57秒
gsk001,2013-12-07 17:25:28,2013-12-07 18:02:15,36分47秒
gsk001,2013-12-07 18:02:15,2013-12-07 18:08:38,6分23秒
gsk001,2013-12-07 18:25:48,2013-12-07 18:30:49,5分1秒
gsk001,2013-12-07 18:38:07,2013-12-07 18:49:14,11分7秒
gsk001,2013-12-07 18:55:34,2013-12-07 19:03:25,7分51秒
gsk001,2013-12-07 19:03:25,2013-12-08 07:29:46,12時間26分21秒
gsk001,2013-12-08 08:22:02,2013-12-09 07:22:28,23時間26秒
gsk001,2013-12-09 07:45:20,2013-12-09 08:09:58,24分38秒
gsk001,2013-12-09 08:24:49,2013-12-09 17:34:54,9時間10分5秒
gsk001,2013-12-09 18:08:57,2013-12-09 18:15:47,6分50秒
gsk001,2013-12-09 18:41:19,2013-12-09 19:02:20,21分1秒
gsk001,2013-12-09 19:06:52,2013-12-10 07:23:49,12時間16分57秒
gsk001,2013-12-10 08:26:25,2013-12-10 18:06:49,9時間40分24秒
gsk001,2013-12-10 18:06:49,2013-12-10 18:13:02,6分13秒
gsk001,2013-12-10 18:15:08,2013-12-10 18:25:54,10分46秒
gsk001,2013-12-10 19:14:12,2013-12-11 10:20:27,15時間6分15秒
gsk001,2013-12-11 11:47:48,2013-12-11 11:58:21,10分33秒
gsk001,2013-12-11 12:11:15,2013-12-11 12:49:12,37分57秒
gsk001,2013-12-11 13:24:51,2013-12-11 13:31:03,6分12秒
gsk001,2013-12-11 13:36:54,2013-12-11 13:44:12,7分18秒
gsk001,2013-12-11 13:44:12,2013-12-11 13:59:02,14分50秒
gsk001,2013-12-11 14:33:54,2013-12-11 15:13:24,39分30秒
gsk001,2013-12-11 15:37:39,2013-12-11 15:59:56,22分17秒
gsk001,2013-12-11 16:04:09,2013-12-11 21:25:24,5時間21分15秒
gsk001,2013-12-11 21:33:14,2013-12-11 21:38:14,5分
gsk001,2013-12-11 21:51:03,2013-12-11 21:58:07,7分4秒
gsk001,2013-12-11 22:19:49,2013-12-12 07:21:54,9時間2分5秒
gsk001,2013-12-12 07:47:11,2013-12-12 08:12:33,25分22秒
gsk001,2013-12-12 08:22:49,2013-12-12 12:14:36,3時間51分47秒
gsk001,2013-12-12 12:18:10,2013-12-12 12:28:53,10分43秒
gsk001,2013-12-12 13:26:01,2013-12-12 14:10:04,44分3秒
gsk001,2013-12-12 14:21:06,2013-12-12 16:41:38,2時間20分32秒
gsk001,2013-12-12 16:52:10,2013-12-12 18:41:55,1時間49分45秒
gsk001,2013-12-12 19:18:13,2013-12-13 07:20:33,12時間2分20秒
gsk001,2013-12-13 08:23:37,2013-12-13 17:37:58,9時間14分21秒
gsk001,2013-12-13 18:52:35,2013-12-13 19:00:33,7分58秒
gsk001,2013-12-13 19:12:22,2013-12-13 22:18:25,3時間6分3秒
gsk001,2013-12-13 22:18:25,2013-12-13 22:26:20,7分55秒
gsk001,2013-12-13 22:26:20,2013-12-13 22:38:24,12分4秒
gsk002,2013-12-03 19:54:41,2013-12-04 13:58:39,18時間3分58秒
gsk002,2013-12-04 14:43:38,2013-12-04 16:28:16,1時間44分38秒
gsk002,2013-12-04 16:47:54,2013-12-04 17:27:02,39分8秒
gsk002,2013-12-04 17:28:24,2013-12-04 17:58:01,29分37秒
gsk002,2013-12-04 18:01:44,2013-12-05 08:13:45,14時間12分1秒
gsk002,2013-12-05 08:31:16,2013-12-05 08:36:39,5分23秒
gsk002,2013-12-05 08:45:10,2013-12-05 09:00:05,14分55秒
gsk002,2013-12-05 09:04:04,2013-12-05 10:26:18,1時間22分14秒
gsk002,2013-12-05 10:27:49,2013-12-05 10:38:25,10分36秒
gsk002,2013-12-05 10:39:38,2013-12-05 10:49:42,10分4秒
gsk002,2013-12-05 10:51:08,2013-12-05 11:46:04,54分56秒
gsk002,2013-12-05 11:47:35,2013-12-05 11:52:48,5分13秒
gsk002,2013-12-05 11:53:52,2013-12-06 12:39:27,24時間45分35秒
gsk002,2013-12-06 12:40:23,2013-12-06 12:55:10,14分47秒
gsk002,2013-12-06 13:25:03,2013-12-06 13:37:03,12分
gsk002,2013-12-06 13:43:12,2013-12-06 13:53:46,10分34秒
gsk002,2013-12-06 14:00:00,2013-12-06 14:05:09,5分9秒
gsk002,2013-12-06 14:05:09,2013-12-06 15:33:19,1時間28分10秒
gsk002,2013-12-06 15:34:12,2013-12-06 15:41:37,7分25秒
gsk002,2013-12-06 15:42:13,2013-12-06 17:34:19,1時間52分6秒
gsk002,2013-12-06 17:36:14,2013-12-06 17:55:08,18分54秒
gsk002,2013-12-06 18:02:10,2013-12-07 08:22:40,14時間20分30秒
gsk002,2013-12-07 08:23:27,2013-12-07 08:39:00,15分33秒
gsk002,2013-12-07 08:40:40,2013-12-07 08:46:16,5分36秒
gsk002,2013-12-07 08:46:49,2013-12-07 18:14:49,9時間28分
gsk002,2013-12-07 18:18:25,2013-12-07 18:34:43,16分18秒
gsk002,2013-12-07 18:40:07,2013-12-07 19:45:09,1時間5分2秒
gsk002,2013-12-07 19:45:09,2013-12-08 08:22:50,12時間37分41秒
gsk002,2013-12-08 08:46:54,2013-12-08 18:20:08,9時間33分14秒
gsk002,2013-12-08 18:21:40,2013-12-08 18:46:48,25分8秒
gsk002,2013-12-08 18:47:59,2013-12-09 14:19:32,19時間31分33秒
gsk002,2013-12-09 14:53:44,2013-12-10 09:33:58,18時間40分14秒
gsk002,2013-12-10 09:35:45,2013-12-12 06:19:41,44時間43分56秒
gsk002,2013-12-12 06:43:42,2013-12-12 16:25:26,9時間41分44秒
gsk003,2013-12-03 19:14:38,2013-12-04 08:03:55,12時間49分17秒
gsk003,2013-12-04 08:29:23,2013-12-04 09:40:37,1時間11分14秒
gsk003,2013-12-04 09:40:37,2013-12-04 10:11:20,30分43秒
gsk003,2013-12-04 10:11:49,2013-12-04 10:23:00,11分11秒
gsk003,2013-12-04 10:23:00,2013-12-04 10:39:46,16分46秒
gsk003,2013-12-04 10:46:31,2013-12-04 11:03:30,16分59秒
gsk003,2013-12-04 11:04:09,2013-12-04 12:01:26,57分17秒
gsk003,2013-12-04 12:23:38,2013-12-04 12:30:03,6分25秒
gsk003,2013-12-04 12:30:03,2013-12-04 12:36:05,6分2秒
gsk003,2013-12-04 12:36:05,2013-12-04 13:30:26,54分21秒
gsk003,2013-12-04 13:31:11,2013-12-04 13:42:18,11分7秒
gsk003,2013-12-04 13:42:47,2013-12-04 13:55:48,13分1秒
gsk003,2013-12-04 13:55:48,2013-12-04 14:11:44,15分56秒
gsk003,2013-12-04 14:12:17,2013-12-04 14:20:20,8分3秒
gsk003,2013-12-04 14:21:35,2013-12-04 14:27:30,5分55秒
gsk003,2013-12-04 14:27:30,2013-12-04 14:52:23,24分53秒
gsk003,2013-12-04 14:53:18,2013-12-04 14:58:24,5分6秒
gsk003,2013-12-04 14:59:21,2013-12-04 15:04:36,5分15秒
gsk003,2013-12-04 15:04:40,2013-12-04 15:29:29,24分49秒
gsk003,2013-12-04 15:29:34,2013-12-04 15:58:41,29分7秒
gsk003,2013-12-04 16:27:17,2013-12-04 16:34:38,7分21秒
gsk003,2013-12-04 16:42:30,2013-12-04 16:52:29,9分59秒
gsk003,2013-12-04 16:55:24,2013-12-04 17:03:49,8分25秒
gsk003,2013-12-04 17:03:49,2013-12-04 17:20:10,16分21秒
gsk003,2013-12-04 17:20:10,2013-12-04 17:48:59,28分49秒
gsk003,2013-12-04 17:50:16,2013-12-04 18:20:45,30分29秒
gsk003,2013-12-04 18:29:29,2013-12-04 18:51:08,21分39秒
gsk003,2013-12-04 18:51:17,2013-12-04 18:57:03,5分46秒
gsk003,2013-12-04 18:57:08,2013-12-04 19:09:03,11分55秒
gsk003,2013-12-04 19:11:42,2013-12-04 19:21:13,9分31秒
gsk003,2013-12-04 19:21:13,2013-12-04 19:26:31,5分18秒
gsk003,2013-12-04 19:26:35,2013-12-04 19:51:40,25分5秒
gsk003,2013-12-04 19:51:40,2013-12-04 20:26:45,35分5秒
gsk003,2013-12-04 20:26:45,2013-12-04 20:56:51,30分6秒
gsk003,2013-12-04 20:56:51,2013-12-04 21:12:48,15分57秒
gsk003,2013-12-04 21:12:52,2013-12-04 21:28:29,15分37秒
gsk003,2013-12-04 21:31:00,2013-12-04 21:58:12,27分12秒
gsk003,2013-12-04 21:58:12,2013-12-04 22:04:29,6分17秒
gsk003,2013-12-04 22:04:29,2013-12-04 22:28:18,23分49秒
gsk003,2013-12-04 22:28:18,2013-12-04 22:58:29,30分11秒
gsk003,2013-12-04 22:58:29,2013-12-04 23:31:37,33分8秒
gsk003,2013-12-04 23:36:13,2013-12-05 00:03:36,27分23秒
gsk003,2013-12-05 00:03:36,2013-12-05 00:26:19,22分43秒
gsk003,2013-12-05 00:27:54,2013-12-05 00:33:39,5分45秒
gsk003,2013-12-05 00:33:39,2013-12-05 01:04:09,30分30秒
gsk003,2013-12-05 01:04:17,2013-12-05 01:29:47,25分30秒
gsk003,2013-12-05 01:29:47,2013-12-05 01:38:02,8分15秒
gsk003,2013-12-05 01:38:02,2013-12-05 02:10:08,32分6秒
gsk003,2013-12-05 02:10:08,2013-12-05 02:31:05,20分57秒
gsk003,2013-12-05 02:31:05,2013-12-05 02:40:50,9分45秒
gsk003,2013-12-05 02:40:50,2013-12-05 03:23:49,42分59秒
gsk003,2013-12-05 03:23:49,2013-12-05 03:53:54,30分5秒
gsk003,2013-12-05 03:53:54,2013-12-05 04:30:46,36分52秒
gsk003,2013-12-05 04:30:46,2013-12-05 05:02:13,31分27秒
gsk003,2013-12-05 05:02:13,2013-12-05 05:39:49,37分36秒
gsk003,2013-12-05 05:39:49,2013-12-05 06:17:02,37分13秒
gsk003,2013-12-05 06:17:02,2013-12-05 06:30:04,13分2秒
gsk003,2013-12-05 06:30:16,2013-12-05 06:47:07,16分51秒
gsk003,2013-12-05 06:47:07,2013-12-05 07:01:41,14分34秒
gsk003,2013-12-05 07:01:41,2013-12-05 07:18:08,16分27秒
gsk003,2013-12-05 07:18:28,2013-12-05 07:48:14,29分46秒
gsk003,2013-12-05 07:48:25,2013-12-05 08:07:58,19分33秒
gsk003,2013-12-05 08:33:54,2013-12-05 09:37:18,1時間3分24秒
gsk003,2013-12-05 09:37:18,2013-12-05 10:58:36,1時間21分18秒
gsk003,2013-12-05 10:58:36,2013-12-05 12:04:27,1時間5分51秒
gsk003,2013-12-05 12:16:22,2013-12-05 12:54:18,37分56秒
gsk003,2013-12-05 12:57:19,2013-12-05 13:03:25,6分6秒
gsk003,2013-12-05 13:03:25,2013-12-05 13:17:29,14分4秒
gsk003,2013-12-05 13:17:29,2013-12-05 13:28:54,11分25秒
gsk003,2013-12-05 13:28:54,2013-12-05 13:39:10,10分16秒
gsk003,2013-12-05 13:39:19,2013-12-05 14:18:07,38分48秒
gsk003,2013-12-05 14:18:07,2013-12-05 14:23:21,5分14秒
gsk003,2013-12-05 14:23:23,2013-12-05 15:57:00,1時間33分37秒
gsk003,2013-12-05 16:00:48,2013-12-05 16:06:06,5分18秒
gsk003,2013-12-05 16:28:57,2013-12-05 16:36:29,7分32秒
gsk003,2013-12-05 16:39:52,2013-12-05 16:48:30,8分38秒
gsk003,2013-12-05 16:48:30,2013-12-05 16:54:53,6分23秒
gsk003,2013-12-05 16:54:53,2013-12-05 17:10:00,15分7秒
gsk003,2013-12-05 17:10:00,2013-12-05 17:25:21,15分21秒
gsk003,2013-12-05 17:25:21,2013-12-05 17:40:03,14分42秒
gsk003,2013-12-05 17:40:03,2013-12-05 17:47:48,7分45秒
gsk003,2013-12-05 17:55:21,2013-12-05 18:00:56,5分35秒
gsk003,2013-12-05 18:04:24,2013-12-05 18:10:08,5分44秒
gsk003,2013-12-05 18:12:41,2013-12-05 18:26:07,13分26秒
gsk003,2013-12-05 18:26:16,2013-12-05 18:40:14,13分58秒
gsk003,2013-12-05 18:40:14,2013-12-05 19:00:55,20分41秒
gsk003,2013-12-05 19:01:18,2013-12-05 19:10:19,9分1秒
gsk003,2013-12-05 19:10:19,2013-12-05 19:21:45,11分26秒
gsk003,2013-12-05 19:23:01,2013-12-05 19:40:37,17分36秒
gsk003,2013-12-05 19:41:14,2013-12-05 20:10:56,29分42秒
gsk003,2013-12-05 20:10:56,2013-12-06 09:06:39,12時間55分43秒
gsk003,2013-12-06 09:22:57,2013-12-06 10:10:38,47分41秒
gsk003,2013-12-06 10:12:39,2013-12-06 10:32:14,19分35秒
gsk003,2013-12-06 10:32:14,2013-12-06 10:38:18,6分4秒
gsk003,2013-12-06 10:38:18,2013-12-06 10:45:03,6分45秒
gsk003,2013-12-06 10:45:55,2013-12-06 10:51:36,5分41秒
gsk003,2013-12-06 11:04:34,2013-12-06 11:59:51,55分17秒
gsk003,2013-12-06 12:09:26,2013-12-06 12:20:21,10分55秒
gsk003,2013-12-06 12:20:21,2013-12-06 12:58:10,37分49秒
gsk003,2013-12-06 12:58:10,2013-12-06 13:38:02,39分52秒
gsk003,2013-12-06 13:38:02,2013-12-06 16:49:52,3時間11分50秒
gsk003,2013-12-06 16:50:32,2013-12-06 17:33:43,43分11秒
gsk003,2013-12-06 17:57:22,2013-12-06 18:29:25,32分3秒
gsk003,2013-12-06 18:40:30,2013-12-06 18:47:41,7分11秒
gsk003,2013-12-06 19:03:16,2013-12-06 19:09:01,5分45秒
gsk003,2013-12-06 19:12:06,2013-12-06 19:37:46,25分40秒
gsk003,2013-12-06 19:37:57,2013-12-06 19:51:07,13分10秒
gsk003,2013-12-06 19:51:07,2013-12-06 20:21:11,30分4秒
gsk003,2013-12-06 20:21:11,2013-12-06 20:51:16,30分5秒
gsk003,2013-12-06 20:51:16,2013-12-06 20:58:41,7分25秒
gsk003,2013-12-06 20:58:51,2013-12-06 21:03:56,5分5秒
gsk003,2013-12-06 21:04:34,2013-12-06 21:21:37,17分3秒
gsk003,2013-12-06 21:21:46,2013-12-06 21:43:22,21分36秒
gsk003,2013-12-06 21:43:42,2013-12-06 21:51:57,8分15秒
gsk003,2013-12-06 21:51:57,2013-12-06 22:03:44,11分47秒
gsk003,2013-12-06 22:03:44,2013-12-06 22:22:22,18分38秒
gsk003,2013-12-06 22:22:30,2013-12-06 22:41:11,18分41秒
gsk003,2013-12-06 22:41:13,2013-12-06 22:52:46,11分33秒
gsk003,2013-12-06 22:52:46,2013-12-06 23:22:58,30分12秒
gsk003,2013-12-06 23:22:58,2013-12-06 23:53:04,30分6秒
gsk003,2013-12-06 23:53:04,2013-12-07 00:23:21,30分17秒
gsk003,2013-12-07 00:23:21,2013-12-07 00:53:45,30分24秒
gsk003,2013-12-07 00:53:45,2013-12-07 01:24:33,30分48秒
gsk003,2013-12-07 01:30:02,2013-12-07 01:38:54,8分52秒
gsk003,2013-12-07 01:38:54,2013-12-07 01:55:15,16分21秒
gsk003,2013-12-07 01:55:15,2013-12-07 02:26:21,31分6秒
gsk003,2013-12-07 02:26:21,2013-12-07 02:48:08,21分47秒
gsk003,2013-12-07 02:49:15,2013-12-07 02:57:58,8分43秒
gsk003,2013-12-07 02:57:58,2013-12-07 03:20:25,22分27秒
gsk003,2013-12-07 03:28:04,2013-12-07 03:44:18,16分14秒
gsk003,2013-12-07 03:44:18,2013-12-07 04:00:23,16分5秒
gsk003,2013-12-07 04:00:23,2013-12-07 04:42:01,41分38秒
gsk003,2013-12-07 04:42:01,2013-12-07 05:13:39,31分38秒
gsk003,2013-12-07 05:13:39,2013-12-07 05:47:17,33分38秒
gsk003,2013-12-07 05:47:17,2013-12-07 06:21:06,33分49秒
gsk003,2013-12-07 06:21:06,2013-12-07 06:56:45,35分39秒
gsk003,2013-12-07 06:56:45,2013-12-07 07:27:11,30分26秒
gsk003,2013-12-07 07:27:11,2013-12-07 08:01:51,34分40秒
gsk003,2013-12-07 08:01:51,2013-12-07 08:41:42,39分51秒
gsk003,2013-12-07 08:41:42,2013-12-07 09:17:03,35分21秒
gsk003,2013-12-07 09:17:03,2013-12-07 09:47:08,30分5秒
gsk003,2013-12-07 09:50:33,2013-12-07 10:04:19,13分46秒
gsk003,2013-12-07 10:04:19,2013-12-07 10:14:27,10分8秒
gsk003,2013-12-07 10:14:34,2013-12-07 10:20:53,6分19秒
gsk003,2013-12-07 10:21:04,2013-12-07 10:31:23,10分19秒
gsk003,2013-12-07 10:31:23,2013-12-07 10:38:35,7分12秒
gsk003,2013-12-07 10:38:35,2013-12-07 10:49:13,10分38秒
gsk003,2013-12-07 10:50:59,2013-12-07 11:22:53,31分54秒
gsk003,2013-12-07 11:23:36,2013-12-07 11:38:36,15分
gsk003,2013-12-07 11:38:36,2013-12-07 11:53:16,14分40秒
gsk003,2013-12-07 11:53:16,2013-12-07 12:14:30,21分14秒
gsk003,2013-12-07 12:14:36,2013-12-07 12:23:40,9分4秒
gsk003,2013-12-07 12:23:40,2013-12-07 12:55:22,31分42秒
gsk003,2013-12-07 12:55:23,2013-12-07 13:25:01,29分38秒
gsk003,2013-12-07 13:25:29,2013-12-07 13:55:36,30分7秒
gsk003,2013-12-07 13:55:36,2013-12-07 14:27:03,31分27秒
gsk003,2013-12-07 14:27:03,2013-12-07 15:02:17,35分14秒
gsk003,2013-12-07 15:02:17,2013-12-07 15:39:33,37分16秒
gsk003,2013-12-07 15:39:33,2013-12-07 16:18:34,39分1秒
gsk003,2013-12-07 16:18:34,2013-12-07 16:51:36,33分2秒
gsk003,2013-12-07 16:51:43,2013-12-07 17:35:39,43分56秒
gsk003,2013-12-07 17:36:47,2013-12-07 18:21:46,44分59秒
gsk003,2013-12-07 18:28:05,2013-12-07 18:35:59,7分54秒
gsk003,2013-12-07 19:25:03,2013-12-07 19:30:58,5分55秒
gsk003,2013-12-07 19:32:52,2013-12-07 19:38:33,5分41秒
gsk003,2013-12-07 19:38:43,2013-12-07 19:49:08,10分25秒
gsk003,2013-12-07 20:15:27,2013-12-07 20:59:34,44分7秒
gsk003,2013-12-07 21:11:36,2013-12-07 21:57:10,45分34秒
gsk003,2013-12-07 21:57:10,2013-12-07 22:13:54,16分44秒
gsk003,2013-12-07 22:30:09,2013-12-07 22:40:30,10分21秒
gsk003,2013-12-07 22:45:43,2013-12-07 23:04:00,18分17秒
gsk003,2013-12-07 23:16:58,2013-12-07 23:35:21,18分23秒
gsk003,2013-12-07 23:44:58,2013-12-07 23:58:04,13分6秒
gsk003,2013-12-07 23:58:04,2013-12-08 00:05:29,7分25秒
gsk003,2013-12-08 00:05:34,2013-12-08 00:35:54,30分20秒
gsk003,2013-12-08 00:35:54,2013-12-08 01:21:03,45分9秒
gsk003,2013-12-08 01:26:05,2013-12-08 01:32:38,6分33秒
gsk003,2013-12-08 01:32:38,2013-12-08 01:40:48,8分10秒
gsk003,2013-12-08 01:40:48,2013-12-08 01:46:40,5分52秒
gsk003,2013-12-08 01:46:40,2013-12-08 01:55:21,8分41秒
gsk003,2013-12-08 01:55:21,2013-12-08 02:12:49,17分28秒
gsk003,2013-12-08 02:12:52,2013-12-08 02:29:58,17分6秒
gsk003,2013-12-08 02:29:58,2013-12-08 02:45:22,15分24秒
gsk003,2013-12-08 02:49:54,2013-12-08 02:56:59,7分5秒
gsk003,2013-12-08 03:00:09,2013-12-08 03:05:29,5分20秒
gsk003,2013-12-08 03:05:29,2013-12-08 03:34:55,29分26秒
gsk003,2013-12-08 03:34:55,2013-12-08 04:05:01,30分6秒
gsk003,2013-12-08 04:05:01,2013-12-08 04:36:45,31分44秒
gsk003,2013-12-08 04:36:45,2013-12-08 04:43:31,6分46秒
gsk003,2013-12-08 04:53:59,2013-12-08 05:01:09,7分10秒
gsk003,2013-12-08 05:01:09,2013-12-08 05:06:25,5分16秒
gsk003,2013-12-08 05:06:34,2013-12-08 05:46:25,39分51秒
gsk003,2013-12-08 05:46:25,2013-12-08 06:16:32,30分7秒
gsk003,2013-12-08 06:16:32,2013-12-08 06:49:13,32分41秒
gsk003,2013-12-08 06:49:13,2013-12-08 07:14:23,25分10秒
gsk003,2013-12-08 07:19:19,2013-12-08 07:50:25,31分6秒
gsk003,2013-12-08 07:50:25,2013-12-08 08:25:47,35分22秒
gsk003,2013-12-08 08:25:47,2013-12-08 08:55:53,30分6秒
gsk003,2013-12-08 08:55:53,2013-12-08 09:22:51,26分58秒
gsk003,2013-12-08 09:25:59,2013-12-08 09:56:07,30分8秒
gsk003,2013-12-08 09:56:07,2013-12-08 10:35:07,39分
gsk003,2013-12-08 10:35:07,2013-12-08 10:44:32,9分25秒
gsk003,2013-12-08 10:44:33,2013-12-08 11:05:14,20分41秒
gsk003,2013-12-08 11:05:14,2013-12-08 11:35:21,30分7秒
gsk003,2013-12-08 11:35:21,2013-12-08 12:05:27,30分6秒
gsk003,2013-12-08 12:05:27,2013-12-08 12:35:34,30分7秒
gsk003,2013-12-08 12:35:34,2013-12-08 12:56:18,20分44秒
gsk003,2013-12-08 12:56:30,2013-12-08 13:02:57,6分27秒
gsk003,2013-12-08 13:30:49,2013-12-08 13:36:29,5分40秒
gsk003,2013-12-08 13:44:41,2013-12-08 13:59:55,15分14秒
gsk003,2013-12-08 13:59:55,2013-12-08 14:06:13,6分18秒
gsk003,2013-12-08 14:31:01,2013-12-08 14:37:01,6分
gsk003,2013-12-08 15:03:16,2013-12-08 15:13:41,10分25秒
gsk003,2013-12-08 15:15:34,2013-12-08 15:30:30,14分56秒
gsk003,2013-12-08 15:30:33,2013-12-08 15:37:34,7分1秒
gsk003,2013-12-08 15:53:15,2013-12-08 16:02:46,9分31秒
gsk003,2013-12-08 17:14:58,2013-12-08 17:23:05,8分7秒
gsk003,2013-12-08 18:18:34,2013-12-08 18:48:40,30分6秒
gsk003,2013-12-08 18:48:40,2013-12-08 19:10:21,21分41秒
gsk003,2013-12-08 19:10:22,2013-12-08 19:18:46,8分24秒
gsk003,2013-12-08 19:18:46,2013-12-08 19:52:35,33分49秒
gsk003,2013-12-08 19:54:09,2013-12-08 20:19:58,25分49秒
gsk003,2013-12-08 20:27:50,2013-12-08 20:33:55,6分5秒
gsk003,2013-12-08 20:41:41,2013-12-08 20:55:35,13分54秒
gsk003,2013-12-08 20:55:35,2013-12-08 21:12:10,16分35秒
gsk003,2013-12-08 21:12:10,2013-12-08 21:19:29,7分19秒
gsk003,2013-12-08 21:19:29,2013-12-08 21:25:39,6分10秒
gsk003,2013-12-08 21:25:39,2013-12-08 21:42:21,16分42秒
gsk003,2013-12-08 21:42:21,2013-12-08 21:47:28,5分7秒
gsk003,2013-12-08 21:47:29,2013-12-08 21:56:04,8分35秒
gsk003,2013-12-08 21:56:04,2013-12-08 22:22:53,26分49秒
gsk003,2013-12-08 22:22:53,2013-12-08 22:37:48,14分55秒
gsk003,2013-12-08 23:41:31,2013-12-08 23:48:19,6分48秒
gsk003,2013-12-08 23:48:19,2013-12-08 23:53:43,5分24秒
gsk003,2013-12-08 23:58:20,2013-12-09 00:07:07,8分47秒
gsk003,2013-12-09 00:11:10,2013-12-09 00:33:12,22分2秒
gsk003,2013-12-09 00:33:12,2013-12-09 01:04:19,31分7秒
gsk003,2013-12-09 01:04:19,2013-12-09 01:39:23,35分4秒
gsk003,2013-12-09 01:39:23,2013-12-09 01:49:42,10分19秒
gsk003,2013-12-09 01:49:42,2013-12-09 02:04:08,14分26秒
gsk003,2013-12-09 02:04:16,2013-12-09 02:10:44,6分28秒
gsk003,2013-12-09 02:10:44,2013-12-09 02:21:03,10分19秒
gsk003,2013-12-09 02:21:03,2013-12-09 02:53:47,32分44秒
gsk003,2013-12-09 02:53:47,2013-12-09 03:23:53,30分6秒
gsk003,2013-12-09 03:23:53,2013-12-09 03:54:46,30分53秒
gsk003,2013-12-09 03:54:46,2013-12-09 04:24:52,30分6秒
gsk003,2013-12-09 04:24:52,2013-12-09 04:59:02,34分10秒
gsk003,2013-12-09 04:59:02,2013-12-09 05:29:54,30分52秒
gsk003,2013-12-09 05:29:54,2013-12-09 06:03:07,33分13秒
gsk003,2013-12-09 06:03:07,2013-12-09 06:34:41,31分34秒
gsk003,2013-12-09 06:34:41,2013-12-09 07:04:59,30分18秒
gsk003,2013-12-09 07:04:59,2013-12-09 07:35:12,30分13秒
gsk003,2013-12-09 07:35:12,2013-12-09 08:05:19,30分7秒
gsk003,2013-12-09 08:05:19,2013-12-09 08:14:02,8分43秒
gsk003,2013-12-09 08:36:11,2013-12-09 09:20:30,44分19秒
gsk003,2013-12-09 09:23:48,2013-12-09 09:58:45,34分57秒
gsk003,2013-12-09 09:58:49,2013-12-09 10:04:56,6分7秒
gsk003,2013-12-09 10:04:56,2013-12-09 12:02:40,1時間57分44秒
gsk003,2013-12-09 12:04:34,2013-12-09 12:09:50,5分16秒
gsk003,2013-12-09 12:11:02,2013-12-09 12:27:46,16分44秒
gsk003,2013-12-09 12:27:46,2013-12-09 12:54:04,26分18秒
gsk003,2013-12-09 12:59:01,2013-12-09 13:10:21,11分20秒
gsk003,2013-12-09 13:10:21,2013-12-09 13:24:35,14分14秒
gsk003,2013-12-09 13:24:35,2013-12-09 15:19:42,1時間55分7秒
gsk003,2013-12-09 15:21:09,2013-12-09 15:27:59,6分50秒
gsk003,2013-12-09 15:30:22,2013-12-09 15:40:41,10分19秒
gsk003,2013-12-09 15:40:47,2013-12-09 16:04:23,23分36秒
gsk003,2013-12-09 16:17:08,2013-12-09 16:24:43,7分35秒
gsk003,2013-12-09 17:06:36,2013-12-09 17:20:27,13分51秒
gsk003,2013-12-09 17:20:27,2013-12-09 17:31:24,10分57秒
gsk003,2013-12-09 17:36:28,2013-12-09 18:01:42,25分14秒
gsk003,2013-12-09 18:01:42,2013-12-09 18:08:43,7分1秒
gsk003,2013-12-09 18:08:46,2013-12-09 18:33:04,24分18秒
gsk003,2013-12-09 18:33:04,2013-12-09 18:45:17,12分13秒
gsk003,2013-12-09 18:45:17,2013-12-09 19:05:08,19分51秒
gsk003,2013-12-09 19:06:34,2013-12-09 19:22:12,15分38秒
gsk003,2013-12-09 19:22:12,2013-12-09 19:35:18,13分6秒
gsk003,2013-12-09 19:35:18,2013-12-09 19:52:17,16分59秒
gsk003,2013-12-09 19:52:17,2013-12-09 19:59:16,6分59秒
gsk003,2013-12-09 19:59:16,2013-12-09 20:05:37,6分21秒
gsk003,2013-12-09 20:05:50,2013-12-09 20:14:19,8分29秒
gsk003,2013-12-09 20:21:26,2013-12-09 20:37:05,15分39秒
gsk003,2013-12-09 20:37:05,2013-12-09 20:53:10,16分5秒
gsk003,2013-12-09 20:53:10,2013-12-09 21:05:17,12分7秒
gsk003,2013-12-09 21:05:17,2013-12-09 21:12:55,7分38秒
gsk003,2013-12-09 21:12:55,2013-12-09 21:42:48,29分53秒
gsk003,2013-12-09 21:42:48,2013-12-09 22:13:39,30分51秒
gsk003,2013-12-09 22:13:39,2013-12-09 22:27:49,14分10秒
gsk003,2013-12-09 22:27:53,2013-12-09 22:43:46,15分53秒
gsk003,2013-12-09 22:43:46,2013-12-09 23:14:12,30分26秒
gsk003,2013-12-09 23:14:12,2013-12-09 23:32:44,18分32秒
gsk003,2013-12-09 23:32:47,2013-12-09 23:44:50,12分3秒
gsk003,2013-12-09 23:44:50,2013-12-10 00:07:38,22分48秒
gsk003,2013-12-10 00:07:41,2013-12-10 00:26:53,19分12秒
gsk003,2013-12-10 00:31:21,2013-12-10 01:04:18,32分57秒
gsk003,2013-12-10 01:04:21,2013-12-10 01:47:31,43分10秒
gsk003,2013-12-10 01:47:41,2013-12-10 02:33:08,45分27秒
gsk003,2013-12-10 02:33:18,2013-12-10 02:41:19,8分1秒
gsk003,2013-12-10 02:41:19,2013-12-10 02:51:35,10分16秒
gsk003,2013-12-10 02:51:35,2013-12-10 03:00:07,8分32秒
gsk003,2013-12-10 03:00:07,2013-12-10 03:23:37,23分30秒
gsk003,2013-12-10 03:23:50,2013-12-10 03:36:35,12分45秒
gsk003,2013-12-10 03:36:43,2013-12-10 03:54:22,17分39秒
gsk003,2013-12-10 03:54:22,2013-12-10 04:18:48,24分26秒
gsk003,2013-12-10 04:18:48,2013-12-10 04:26:04,7分16秒
gsk003,2013-12-10 04:26:04,2013-12-10 05:06:46,40分42秒
gsk003,2013-12-10 05:06:46,2013-12-10 05:38:44,31分58秒
gsk003,2013-12-10 05:38:44,2013-12-10 06:25:21,46分37秒
gsk003,2013-12-10 06:25:21,2013-12-10 06:55:26,30分5秒
gsk003,2013-12-10 06:55:26,2013-12-10 07:25:32,30分6秒
gsk003,2013-12-10 07:25:32,2013-12-10 07:55:39,30分7秒
gsk003,2013-12-10 07:55:39,2013-12-10 08:09:31,13分52秒
gsk003,2013-12-10 08:34:08,2013-12-10 09:19:05,44分57秒
gsk003,2013-12-10 09:19:05,2013-12-10 09:45:44,26分39秒
gsk003,2013-12-10 09:45:44,2013-12-10 10:13:13,27分29秒
gsk003,2013-12-10 10:50:57,2013-12-10 10:58:29,7分32秒
gsk003,2013-12-10 11:02:13,2013-12-10 11:20:18,18分5秒
gsk003,2013-12-10 11:20:21,2013-12-10 11:40:36,20分15秒
gsk003,2013-12-10 11:41:48,2013-12-10 12:04:21,22分33秒
gsk003,2013-12-10 12:34:39,2013-12-10 12:54:23,19分44秒
gsk003,2013-12-10 12:59:38,2013-12-10 13:06:25,6分47秒
gsk003,2013-12-10 13:06:42,2013-12-10 13:20:00,13分18秒
gsk003,2013-12-10 13:20:00,2013-12-10 13:30:46,10分46秒
gsk003,2013-12-10 13:31:10,2013-12-10 14:49:44,1時間18分34秒
gsk003,2013-12-10 14:51:34,2013-12-10 16:05:04,1時間13分30秒
gsk003,2013-12-10 16:38:39,2013-12-10 16:43:52,5分13秒
gsk003,2013-12-10 16:43:52,2013-12-10 16:50:30,6分38秒
gsk003,2013-12-10 16:53:52,2013-12-10 17:01:08,7分16秒
gsk003,2013-12-10 17:05:59,2013-12-10 17:20:04,14分5秒
gsk003,2013-12-10 17:24:28,2013-12-10 17:30:17,5分49秒
gsk003,2013-12-10 17:30:17,2013-12-10 17:42:26,12分9秒
gsk003,2013-12-10 17:42:26,2013-12-10 17:58:31,16分5秒
gsk003,2013-12-10 18:12:42,2013-12-10 18:42:38,29分56秒
gsk003,2013-12-10 18:42:38,2013-12-10 18:53:32,10分54秒
gsk003,2013-12-10 18:53:32,2013-12-10 19:02:48,9分16秒
gsk003,2013-12-10 19:06:15,2013-12-10 19:12:44,6分29秒
gsk003,2013-12-10 19:12:44,2013-12-10 19:24:11,11分27秒
gsk003,2013-12-10 19:37:24,2013-12-10 19:46:00,8分36秒
gsk003,2013-12-10 20:01:29,2013-12-10 20:13:38,12分9秒
gsk003,2013-12-10 20:19:59,2013-12-10 20:32:55,12分56秒
gsk003,2013-12-10 20:32:55,2013-12-10 20:40:50,7分55秒
gsk003,2013-12-10 20:56:10,2013-12-10 21:08:21,12分11秒
gsk003,2013-12-10 21:08:21,2013-12-10 21:18:26,10分5秒
gsk003,2013-12-10 21:18:39,2013-12-10 21:39:11,20分32秒
gsk003,2013-12-10 21:39:12,2013-12-10 21:53:46,14分34秒
gsk003,2013-12-10 21:55:36,2013-12-10 22:07:26,11分50秒
gsk003,2013-12-10 22:11:45,2013-12-10 22:19:50,8分5秒
gsk003,2013-12-10 22:21:39,2013-12-10 22:31:29,9分50秒
gsk003,2013-12-10 22:48:14,2013-12-10 22:55:22,7分8秒
gsk003,2013-12-10 22:55:22,2013-12-10 23:05:11,9分49秒
gsk003,2013-12-10 23:05:11,2013-12-10 23:12:49,7分38秒
gsk003,2013-12-10 23:15:55,2013-12-10 23:47:07,31分12秒
gsk003,2013-12-11 00:09:53,2013-12-11 00:15:08,5分15秒
gsk003,2013-12-11 00:19:55,2013-12-11 00:28:01,8分6秒
gsk003,2013-12-11 00:29:40,2013-12-11 00:38:13,8分33秒
gsk003,2013-12-11 00:38:13,2013-12-11 00:46:43,8分30秒
gsk003,2013-12-11 00:46:43,2013-12-11 00:53:33,6分50秒
gsk003,2013-12-11 00:53:33,2013-12-11 01:01:38,8分5秒
gsk003,2013-12-11 01:01:48,2013-12-11 01:07:53,6分5秒
gsk003,2013-12-11 01:07:53,2013-12-11 01:32:48,24分55秒
gsk003,2013-12-11 01:32:48,2013-12-11 02:05:28,32分40秒
gsk003,2013-12-11 02:05:28,2013-12-11 02:35:58,30分30秒
gsk003,2013-12-11 02:35:58,2013-12-11 03:06:49,30分51秒
gsk003,2013-12-11 03:06:49,2013-12-11 03:37:38,30分49秒
gsk003,2013-12-11 03:37:38,2013-12-11 04:12:24,34分46秒
gsk003,2013-12-11 04:51:37,2013-12-11 05:05:05,13分28秒
gsk003,2013-12-11 05:05:05,2013-12-11 05:18:31,13分26秒
gsk003,2013-12-11 05:18:39,2013-12-11 05:48:13,29分34秒
gsk003,2013-12-11 05:53:48,2013-12-11 05:59:27,5分39秒
gsk003,2013-12-11 05:59:27,2013-12-11 06:08:28,9分1秒
gsk003,2013-12-11 06:08:28,2013-12-11 06:19:30,11分2秒
gsk003,2013-12-11 06:19:30,2013-12-11 06:49:47,30分17秒
gsk003,2013-12-11 06:49:47,2013-12-11 07:19:52,30分5秒
gsk003,2013-12-11 07:19:52,2013-12-11 07:50:10,30分18秒
gsk003,2013-12-11 07:50:10,2013-12-11 08:14:55,24分45秒
gsk003,2013-12-11 08:37:43,2013-12-11 09:13:53,36分10秒
gsk003,2013-12-11 09:13:53,2013-12-11 10:13:04,59分11秒
gsk003,2013-12-11 10:13:04,2013-12-11 10:20:44,7分40秒
gsk003,2013-12-11 10:21:55,2013-12-11 10:35:13,13分18秒
gsk003,2013-12-11 10:35:13,2013-12-11 12:00:46,1時間25分33秒
gsk003,2013-12-11 12:00:46,2013-12-11 12:07:58,7分12秒
gsk003,2013-12-11 12:11:42,2013-12-11 12:17:12,5分30秒
gsk003,2013-12-11 12:32:21,2013-12-11 12:41:26,9分5秒
gsk003,2013-12-11 12:44:21,2013-12-11 12:50:24,6分3秒
gsk003,2013-12-11 12:54:24,2013-12-11 13:01:15,6分51秒
gsk003,2013-12-11 13:02:22,2013-12-11 13:15:40,13分18秒
gsk003,2013-12-11 13:15:40,2013-12-11 16:03:31,2時間47分51秒
gsk003,2013-12-11 16:26:03,2013-12-11 16:37:59,11分56秒
gsk003,2013-12-11 17:09:24,2013-12-11 17:31:42,22分18秒
gsk003,2013-12-11 17:34:23,2013-12-11 17:41:50,7分27秒
gsk003,2013-12-11 17:49:16,2013-12-11 17:57:53,8分37秒
gsk003,2013-12-11 18:01:11,2013-12-11 18:13:04,11分53秒
gsk003,2013-12-11 18:13:04,2013-12-11 18:43:23,30分19秒
gsk003,2013-12-11 18:43:23,2013-12-11 18:55:05,11分42秒
gsk003,2013-12-11 18:58:40,2013-12-11 19:25:26,26分46秒
gsk003,2013-12-11 19:25:26,2013-12-11 19:55:32,30分6秒
gsk003,2013-12-11 19:55:32,2013-12-11 20:31:15,35分43秒
gsk003,2013-12-11 20:31:15,2013-12-11 20:44:28,13分13秒
gsk003,2013-12-11 20:44:35,2013-12-11 21:01:21,16分46秒
gsk003,2013-12-11 21:01:21,2013-12-11 21:31:27,30分6秒
gsk003,2013-12-11 21:31:27,2013-12-11 22:00:19,28分52秒
gsk003,2013-12-12 00:03:37,2013-12-12 00:16:59,13分22秒
gsk003,2013-12-12 00:16:59,2013-12-12 00:29:11,12分12秒
gsk003,2013-12-12 00:29:58,2013-12-12 00:48:17,18分19秒
gsk003,2013-12-12 00:48:17,2013-12-12 01:00:21,12分4秒
gsk003,2013-12-12 01:00:21,2013-12-12 01:30:55,30分34秒
gsk003,2013-12-12 01:30:55,2013-12-12 01:49:27,18分32秒
gsk003,2013-12-12 01:49:28,2013-12-12 02:01:20,11分52秒
gsk003,2013-12-12 02:01:20,2013-12-12 02:31:28,30分8秒
gsk003,2013-12-12 02:31:28,2013-12-12 03:09:20,37分52秒
gsk003,2013-12-12 03:09:20,2013-12-12 03:39:24,30分4秒
gsk003,2013-12-12 03:39:24,2013-12-12 04:15:34,36分10秒
gsk003,2013-12-12 04:15:34,2013-12-12 04:45:41,30分7秒
gsk003,2013-12-12 04:45:41,2013-12-12 05:17:18,31分37秒
gsk003,2013-12-12 05:17:18,2013-12-12 05:47:23,30分5秒
gsk003,2013-12-12 05:47:23,2013-12-12 06:19:04,31分41秒
gsk003,2013-12-12 06:26:45,2013-12-12 06:35:27,8分42秒
gsk003,2013-12-12 06:35:27,2013-12-12 06:49:09,13分42秒
gsk003,2013-12-12 06:49:09,2013-12-12 07:04:24,15分15秒
gsk003,2013-12-12 07:09:20,2013-12-12 07:19:16,9分56秒
gsk003,2013-12-12 07:19:16,2013-12-12 07:40:05,20分49秒
gsk003,2013-12-12 07:40:05,2013-12-12 07:49:22,9分17秒
gsk003,2013-12-12 07:49:22,2013-12-12 08:13:11,23分49秒
gsk003,2013-12-12 08:34:42,2013-12-12 09:52:20,1時間17分38秒
gsk003,2013-12-12 09:53:25,2013-12-12 11:02:11,1時間8分46秒
gsk003,2013-12-12 11:02:11,2013-12-12 12:01:55,59分44秒
gsk003,2013-12-12 12:15:02,2013-12-12 12:20:40,5分38秒
gsk003,2013-12-12 12:29:00,2013-12-12 12:38:49,9分49秒
gsk003,2013-12-12 12:46:31,2013-12-12 12:59:53,13分22秒
gsk003,2013-12-12 13:00:19,2013-12-12 13:13:43,13分24秒
gsk003,2013-12-12 13:13:43,2013-12-12 16:00:17,2時間46分34秒
gsk003,2013-12-12 16:00:17,2013-12-12 16:41:41,41分24秒
gsk003,2013-12-12 17:12:10,2013-12-12 17:17:22,5分12秒
gsk003,2013-12-12 17:21:50,2013-12-12 17:29:08,7分18秒
gsk003,2013-12-12 17:29:08,2013-12-12 17:55:18,26分10秒
gsk003,2013-12-12 17:56:44,2013-12-12 18:08:53,12分9秒
gsk003,2013-12-12 18:08:53,2013-12-12 18:31:08,22分15秒
gsk003,2013-12-12 18:31:18,2013-12-12 18:40:29,9分11秒
gsk003,2013-12-12 18:40:29,2013-12-12 19:02:04,21分35秒
gsk003,2013-12-12 19:17:38,2013-12-12 19:25:40,8分2秒
gsk003,2013-12-12 19:32:54,2013-12-12 19:49:44,16分50秒
gsk003,2013-12-12 19:49:44,2013-12-12 20:09:48,20分4秒
gsk003,2013-12-12 20:09:55,2013-12-12 20:25:49,15分54秒
gsk003,2013-12-12 20:25:50,2013-12-12 20:45:52,20分2秒
gsk003,2013-12-12 20:45:52,2013-12-12 21:14:14,28分22秒
gsk003,2013-12-12 21:15:58,2013-12-12 21:22:46,6分48秒
gsk003,2013-12-12 21:22:46,2013-12-12 21:30:57,8分11秒
gsk003,2013-12-12 21:31:00,2013-12-12 21:46:20,15分20秒
gsk003,2013-12-12 21:46:28,2013-12-12 22:20:19,33分51秒
gsk003,2013-12-12 22:20:19,2013-12-12 22:35:32,15分13秒
gsk003,2013-12-12 22:35:32,2013-12-12 22:49:11,13分39秒
gsk003,2013-12-12 22:49:11,2013-12-12 22:58:25,9分14秒
gsk003,2013-12-12 22:58:25,2013-12-12 23:21:10,22分45秒
gsk003,2013-12-12 23:21:12,2013-12-12 23:28:29,7分17秒
gsk003,2013-12-12 23:28:29,2013-12-12 23:56:09,27分40秒
gsk003,2013-12-12 23:59:16,2013-12-13 00:29:33,30分17秒
gsk003,2013-12-13 00:30:00,2013-12-13 00:49:13,19分13秒
gsk003,2013-12-13 00:49:13,2013-12-13 00:56:40,7分27秒
gsk003,2013-12-13 00:56:40,2013-12-13 01:06:49,10分9秒
gsk003,2013-12-13 01:06:49,2013-12-13 01:36:55,30分6秒
gsk003,2013-12-13 01:36:55,2013-12-13 02:16:24,39分29秒
gsk003,2013-12-13 02:16:24,2013-12-13 02:50:59,34分35秒
gsk003,2013-12-13 02:50:59,2013-12-13 03:23:36,32分37秒
gsk003,2013-12-13 03:23:36,2013-12-13 03:47:35,23分59秒
gsk003,2013-12-13 03:49:59,2013-12-13 03:57:03,7分4秒
gsk003,2013-12-13 04:14:48,2013-12-13 04:26:37,11分49秒
gsk003,2013-12-13 04:26:37,2013-12-13 04:33:38,7分1秒
gsk003,2013-12-13 04:33:43,2013-12-13 05:15:43,42分
gsk003,2013-12-13 05:16:15,2013-12-13 05:25:37,9分22秒
gsk003,2013-12-13 05:26:44,2013-12-13 05:36:01,9分17秒
gsk003,2013-12-13 05:36:01,2013-12-13 05:47:53,11分52秒
gsk003,2013-12-13 05:50:48,2013-12-13 06:22:54,32分6秒
gsk003,2013-12-13 06:22:54,2013-12-13 06:52:27,29分33秒
gsk004,2013-12-04 13:44:19,2013-12-04 14:37:42,53分23秒
gsk004,2013-12-04 16:01:15,2013-12-04 16:17:05,15分50秒
gsk004,2013-12-04 16:17:24,2013-12-04 18:38:28,2時間21分4秒
gsk004,2013-12-04 19:10:59,2013-12-04 19:16:16,5分17秒
gsk004,2013-12-04 19:58:11,2013-12-04 20:03:17,5分6秒
gsk004,2013-12-04 20:47:44,2013-12-05 12:16:29,15時間28分45秒
gsk004,2013-12-05 12:57:39,2013-12-05 16:28:23,3時間30分44秒
gsk004,2013-12-05 17:30:31,2013-12-05 17:56:47,26分16秒
gsk004,2013-12-05 18:13:29,2013-12-05 19:11:33,58分4秒
gsk004,2013-12-05 19:39:14,2013-12-06 10:18:22,14時間39分8秒
gsk004,2013-12-06 13:57:34,2013-12-06 15:58:17,2時間43秒
gsk004,2013-12-06 15:58:18,2013-12-06 16:41:59,43分41秒
gsk004,2013-12-06 16:47:43,2013-12-07 13:28:59,20時間41分16秒
gsk004,2013-12-07 13:39:39,2013-12-07 15:01:39,1時間22分
gsk004,2013-12-07 15:29:44,2013-12-08 19:30:04,28時間20秒
gsk004,2013-12-08 19:57:48,2013-12-09 13:19:10,17時間21分22秒
gsk004,2013-12-09 13:36:16,2013-12-09 14:34:03,57分47秒
gsk004,2013-12-09 14:43:59,2013-12-10 12:19:00,21時間35分1秒
gsk004,2013-12-10 14:05:57,2013-12-10 16:17:45,2時間11分48秒
gsk004,2013-12-10 16:18:02,2013-12-11 10:13:07,17時間55分5秒
gsk004,2013-12-11 10:55:22,2013-12-11 13:12:10,2時間16分48秒
gsk004,2013-12-11 13:12:14,2013-12-11 14:30:31,1時間18分17秒
gsk004,2013-12-11 14:38:50,2013-12-12 13:27:29,22時間48分39秒
gsk004,2013-12-12 13:49:38,2013-12-12 14:44:42,55分4秒
gsk004,2013-12-12 14:46:29,2013-12-12 16:13:05,1時間26分36秒
gsk004,2013-12-12 16:16:08,2013-12-12 16:35:22,19分14秒
gsk004,2013-12-12 16:42:19,2013-12-12 18:26:07,1時間43分48秒
gsk004,2013-12-12 18:26:31,2013-12-13 07:53:12,13時間26分41秒
gsk004,2013-12-13 08:51:51,2013-12-13 10:24:16,1時間32分25秒
gsk004,2013-12-13 10:29:13,2013-12-13 12:12:34,1時間43分21秒
gsk005,2013-12-03 19:10:25,2013-12-03 19:42:46,32分21秒
gsk005,2013-12-03 19:57:25,2013-12-03 20:09:27,12分2秒
gsk005,2013-12-03 20:18:40,2013-12-04 07:44:33,11時間25分53秒
gsk005,2013-12-04 07:45:01,2013-12-04 07:50:01,5分
gsk005,2013-12-04 07:59:11,2013-12-04 08:05:52,6分41秒
gsk005,2013-12-04 09:05:26,2013-12-04 09:15:25,9分59秒
gsk005,2013-12-04 09:15:45,2013-12-04 09:23:01,7分16秒
gsk005,2013-12-04 09:37:27,2013-12-04 09:45:54,8分27秒
gsk005,2013-12-04 09:46:09,2013-12-04 09:51:33,5分24秒
gsk005,2013-12-04 09:51:33,2013-12-04 10:01:30,9分57秒
gsk005,2013-12-04 10:02:05,2013-12-04 14:28:29,4時間26分24秒
gsk005,2013-12-04 15:16:42,2013-12-04 15:24:04,7分22秒
gsk005,2013-12-04 15:25:15,2013-12-04 15:31:47,6分32秒
gsk005,2013-12-04 15:45:43,2013-12-04 15:51:26,5分43秒
gsk005,2013-12-04 15:55:49,2013-12-04 20:25:50,4時間30分1秒
gsk005,2013-12-04 20:31:48,2013-12-04 20:49:59,18分11秒
gsk005,2013-12-04 20:49:59,2013-12-04 20:59:11,9分12秒
gsk005,2013-12-04 21:14:28,2013-12-04 21:24:17,9分49秒
gsk005,2013-12-04 21:24:17,2013-12-04 21:29:44,5分27秒
gsk005,2013-12-04 21:36:29,2013-12-04 22:06:42,30分13秒
gsk005,2013-12-04 22:30:01,2013-12-04 22:41:09,11分8秒
gsk005,2013-12-04 23:11:17,2013-12-04 23:21:32,10分15秒
gsk005,2013-12-04 23:23:52,2013-12-04 23:30:30,6分38秒
gsk005,2013-12-05 00:00:22,2013-12-05 02:25:21,2時間24分59秒
gsk005,2013-12-05 02:33:20,2013-12-05 02:41:20,8分
gsk005,2013-12-05 02:45:11,2013-12-05 02:51:09,5分58秒
gsk005,2013-12-05 02:51:09,2013-12-05 02:57:11,6分2秒
gsk005,2013-12-05 02:57:11,2013-12-05 03:28:07,30分56秒
gsk005,2013-12-05 03:28:07,2013-12-05 04:39:43,1時間11分36秒
gsk005,2013-12-05 04:40:10,2013-12-05 06:05:05,1時間24分55秒
gsk005,2013-12-05 06:05:05,2013-12-05 06:32:52,27分47秒
gsk005,2013-12-05 06:36:34,2013-12-05 07:52:48,1時間16分14秒
gsk005,2013-12-05 07:52:48,2013-12-05 08:52:42,59分54秒
gsk005,2013-12-05 08:52:42,2013-12-05 09:27:00,34分18秒
gsk005,2013-12-05 09:27:00,2013-12-05 09:33:53,6分53秒
gsk005,2013-12-05 09:36:34,2013-12-05 09:41:34,5分
gsk005,2013-12-05 09:41:34,2013-12-05 09:47:01,5分27秒
gsk005,2013-12-05 09:53:22,2013-12-05 10:03:53,10分31秒
gsk005,2013-12-05 10:39:13,2013-12-05 17:51:34,7時間12分21秒
gsk005,2013-12-05 18:14:20,2013-12-05 20:07:59,1時間53分39秒
gsk005,2013-12-05 20:15:10,2013-12-05 21:02:49,47分39秒
gsk005,2013-12-05 21:04:42,2013-12-06 08:08:01,11時間3分19秒
gsk005,2013-12-06 08:38:34,2013-12-06 12:45:25,4時間6分51秒
gsk005,2013-12-06 13:38:17,2013-12-06 21:17:34,7時間39分17秒
gsk005,2013-12-06 21:20:58,2013-12-07 11:02:19,13時間41分21秒
gsk005,2013-12-07 11:03:22,2013-12-08 01:21:33,14時間18分11秒
gsk005,2013-12-08 01:22:30,2013-12-08 09:56:14,8時間33分44秒
gsk005,2013-12-08 10:28:13,2013-12-08 16:13:54,5時間45分41秒
gsk005,2013-12-08 16:41:27,2013-12-08 16:58:36,17分9秒
gsk005,2013-12-08 17:17:22,2013-12-08 17:35:02,17分40秒
gsk005,2013-12-08 17:55:16,2013-12-08 20:00:59,2時間5分43秒
gsk005,2013-12-08 20:01:21,2013-12-08 23:16:30,3時間15分9秒
gsk005,2013-12-08 23:33:04,2013-12-08 23:50:27,17分23秒
gsk005,2013-12-08 23:50:27,2013-12-09 09:42:52,9時間52分25秒
gsk005,2013-12-09 09:47:49,2013-12-09 09:55:05,7分16秒
gsk005,2013-12-09 10:34:47,2013-12-09 13:38:38,3時間3分51秒
gsk005,2013-12-09 13:54:50,2013-12-09 14:05:54,11分4秒
gsk005,2013-12-09 14:16:57,2013-12-09 14:22:19,5分22秒
gsk005,2013-12-09 14:47:32,2013-12-09 17:31:12,2時間43分40秒
gsk005,2013-12-09 17:46:05,2013-12-09 20:56:40,3時間10分35秒
gsk005,2013-12-09 21:00:38,2013-12-10 00:04:58,3時間4分20秒
gsk005,2013-12-10 00:09:34,2013-12-10 01:03:47,54分13秒
gsk005,2013-12-10 01:04:47,2013-12-10 08:12:33,7時間7分46秒
gsk005,2013-12-10 08:49:05,2013-12-10 13:16:44,4時間27分39秒
gsk005,2013-12-10 13:20:02,2013-12-10 14:36:22,1時間16分20秒
gsk005,2013-12-10 14:39:57,2013-12-10 14:48:47,8分50秒
gsk005,2013-12-10 15:11:10,2013-12-11 08:20:40,17時間9分30秒
gsk005,2013-12-11 08:44:56,2013-12-11 14:45:57,6時間1分1秒
gsk005,2013-12-11 14:54:58,2013-12-11 15:39:55,44分57秒
gsk005,2013-12-11 15:47:35,2013-12-11 21:11:16,5時間23分41秒
gsk005,2013-12-11 21:11:37,2013-12-12 09:18:19,12時間6分42秒
gsk005,2013-12-12 09:24:17,2013-12-12 09:39:01,14分44秒
gsk005,2013-12-12 09:43:56,2013-12-12 09:53:18,9分22秒
gsk005,2013-12-12 10:34:03,2013-12-12 15:28:51,4時間54分48秒
gsk005,2013-12-12 15:52:29,2013-12-12 21:22:45,5時間30分16秒
gsk005,2013-12-12 21:25:03,2013-12-13 08:17:48,10時間52分45秒
gsk005,2013-12-13 08:50:58,2013-12-13 13:24:55,4時間33分57秒
gsk005,2013-12-13 13:33:03,2013-12-13 23:43:29,10時間10分26秒
gsk006,2013-12-03 18:50:28,2013-12-04 00:37:27,5時間46分59秒
gsk006,2013-12-04 01:14:04,2013-12-04 01:19:25,5分21秒
gsk006,2013-12-04 01:25:27,2013-12-04 01:32:03,6分36秒
gsk006,2013-12-04 01:34:33,2013-12-04 01:40:58,6分25秒
gsk006,2013-12-04 01:53:03,2013-12-04 02:03:38,10分35秒
gsk006,2013-12-04 02:29:32,2013-12-04 02:37:26,7分54秒
gsk006,2013-12-04 02:37:31,2013-12-04 02:49:19,11分48秒
gsk006,2013-12-04 02:51:33,2013-12-04 03:07:43,16分10秒
gsk006,2013-12-04 03:34:54,2013-12-04 03:39:58,5分4秒
gsk006,2013-12-04 03:41:07,2013-12-04 03:53:19,12分12秒
gsk006,2013-12-04 03:54:34,2013-12-04 04:00:12,5分38秒
gsk006,2013-12-04 05:03:30,2013-12-04 05:09:24,5分54秒
gsk006,2013-12-04 05:15:31,2013-12-04 05:23:40,8分9秒
gsk006,2013-12-04 05:35:51,2013-12-04 05:49:25,13分34秒
gsk006,2013-12-04 05:54:18,2013-12-04 06:01:04,6分46秒
gsk006,2013-12-04 06:01:04,2013-12-04 06:10:33,9分29秒
gsk006,2013-12-04 06:10:53,2013-12-04 06:16:20,5分27秒
gsk006,2013-12-04 06:27:24,2013-12-04 06:34:45,7分21秒
gsk006,2013-12-04 07:16:03,2013-12-04 07:21:17,5分14秒
gsk006,2013-12-04 07:31:20,2013-12-04 07:44:40,13分20秒
gsk006,2013-12-04 07:46:06,2013-12-04 07:54:15,8分9秒
gsk006,2013-12-04 08:11:22,2013-12-04 08:16:35,5分13秒
gsk006,2013-12-04 08:31:19,2013-12-04 08:37:33,6分14秒
gsk006,2013-12-04 08:57:52,2013-12-04 09:20:44,22分52秒
gsk006,2013-12-04 09:29:25,2013-12-04 09:35:30,6分5秒
gsk006,2013-12-04 09:36:50,2013-12-04 09:43:58,7分8秒
gsk006,2013-12-04 09:43:58,2013-12-04 09:52:20,8分22秒
gsk006,2013-12-04 10:16:19,2013-12-04 10:23:47,7分28秒
gsk006,2013-12-04 10:27:32,2013-12-04 10:34:01,6分29秒
gsk006,2013-12-04 11:03:24,2013-12-04 11:08:46,5分22秒
gsk006,2013-12-04 11:18:08,2013-12-04 11:23:14,5分6秒
gsk006,2013-12-04 12:22:56,2013-12-04 12:30:54,7分58秒
gsk006,2013-12-04 12:39:30,2013-12-04 12:47:14,7分44秒
gsk006,2013-12-04 13:07:14,2013-12-04 13:14:48,7分34秒
gsk006,2013-12-04 14:09:59,2013-12-04 16:23:47,2時間13分48秒
gsk006,2013-12-04 17:04:17,2013-12-04 17:11:12,6分55秒
gsk006,2013-12-04 17:52:48,2013-12-04 17:59:22,6分34秒
gsk006,2013-12-04 18:01:22,2013-12-04 18:38:56,37分34秒
gsk006,2013-12-04 18:38:56,2013-12-04 19:16:03,37分7秒
gsk006,2013-12-04 19:16:03,2013-12-04 19:30:22,14分19秒
gsk006,2013-12-04 19:31:08,2013-12-04 19:41:31,10分23秒
gsk006,2013-12-04 19:47:54,2013-12-04 19:59:19,11分25秒
gsk006,2013-12-04 19:59:35,2013-12-04 20:04:55,5分20秒
gsk006,2013-12-04 20:04:55,2013-12-04 20:20:09,15分14秒
gsk006,2013-12-04 20:20:09,2013-12-04 20:30:36,10分27秒
gsk006,2013-12-04 21:06:30,2013-12-04 21:13:08,6分38秒
gsk006,2013-12-04 21:13:08,2013-12-04 21:21:29,8分21秒
gsk006,2013-12-04 21:25:36,2013-12-04 21:39:19,13分43秒
gsk006,2013-12-04 21:41:06,2013-12-04 21:47:13,6分7秒
gsk006,2013-12-04 21:57:09,2013-12-04 22:03:48,6分39秒
gsk006,2013-12-04 22:15:54,2013-12-04 22:23:53,7分59秒
gsk006,2013-12-04 22:29:03,2013-12-04 22:35:03,6分
gsk006,2013-12-04 23:13:02,2013-12-04 23:58:29,45分27秒
gsk006,2013-12-05 00:52:36,2013-12-05 00:58:09,5分33秒
gsk006,2013-12-05 00:59:33,2013-12-05 01:16:18,16分45秒
gsk006,2013-12-05 01:16:18,2013-12-05 01:48:09,31分51秒
gsk006,2013-12-05 01:48:09,2013-12-05 02:20:33,32分24秒
gsk006,2013-12-05 02:20:33,2013-12-05 02:54:48,34分15秒
gsk006,2013-12-05 03:24:13,2013-12-05 07:36:09,4時間11分56秒
gsk006,2013-12-05 07:49:46,2013-12-05 07:56:52,7分6秒
gsk006,2013-12-05 08:21:27,2013-12-05 08:27:04,5分37秒
gsk006,2013-12-05 08:28:23,2013-12-05 08:33:31,5分8秒
gsk006,2013-12-05 09:30:34,2013-12-05 09:35:41,5分7秒
gsk006,2013-12-05 09:35:41,2013-12-05 10:54:24,1時間18分43秒
gsk006,2013-12-05 10:54:24,2013-12-05 11:22:40,28分16秒
gsk006,2013-12-05 11:22:40,2013-12-05 11:45:56,23分16秒
gsk006,2013-12-05 11:47:58,2013-12-05 11:57:14,9分16秒
gsk006,2013-12-05 11:57:14,2013-12-05 12:21:26,24分12秒
gsk006,2013-12-05 12:21:47,2013-12-05 12:27:51,6分4秒
gsk006,2013-12-05 12:27:51,2013-12-05 12:58:17,30分26秒
gsk006,2013-12-05 13:28:45,2013-12-05 13:39:09,10分24秒
gsk006,2013-12-05 13:43:40,2013-12-05 13:49:58,6分18秒
gsk006,2013-12-05 13:58:01,2013-12-05 14:06:20,8分19秒
gsk006,2013-12-05 14:06:20,2013-12-05 14:15:00,8分40秒
gsk006,2013-12-05 14:15:42,2013-12-05 14:24:18,8分36秒
gsk006,2013-12-05 14:24:18,2013-12-05 14:30:54,6分36秒
gsk006,2013-12-05 15:02:42,2013-12-05 15:09:24,6分42秒
gsk006,2013-12-05 15:16:49,2013-12-05 16:50:47,1時間33分58秒
gsk006,2013-12-05 17:15:52,2013-12-05 17:22:39,6分47秒
gsk006,2013-12-05 17:34:14,2013-12-05 17:40:38,6分24秒
gsk006,2013-12-05 17:46:21,2013-12-05 18:03:56,17分35秒
gsk006,2013-12-05 18:04:06,2013-12-05 18:13:12,9分6秒
gsk006,2013-12-05 18:18:33,2013-12-05 18:24:27,5分54秒
gsk006,2013-12-05 18:24:28,2013-12-05 18:30:24,5分56秒
gsk006,2013-12-05 18:37:38,2013-12-05 18:49:24,11分46秒
gsk006,2013-12-05 18:50:00,2013-12-05 18:58:51,8分51秒
gsk006,2013-12-05 18:58:51,2013-12-05 19:06:00,7分9秒
gsk006,2013-12-05 19:50:40,2013-12-05 19:55:46,5分6秒
gsk006,2013-12-05 19:58:09,2013-12-05 20:09:24,11分15秒
gsk006,2013-12-05 20:09:37,2013-12-05 20:15:33,5分56秒
gsk006,2013-12-05 20:21:02,2013-12-05 21:48:20,1時間27分18秒
gsk006,2013-12-05 22:04:32,2013-12-05 22:13:28,8分56秒
gsk006,2013-12-05 22:33:13,2013-12-05 22:38:39,5分26秒
gsk006,2013-12-05 22:48:32,2013-12-05 22:56:55,8分23秒
gsk006,2013-12-05 23:03:04,2013-12-05 23:14:42,11分38秒
gsk006,2013-12-05 23:18:41,2013-12-05 23:34:32,15分51秒
gsk006,2013-12-05 23:58:48,2013-12-06 00:04:42,5分54秒
gsk006,2013-12-06 00:04:42,2013-12-06 00:11:19,6分37秒
gsk006,2013-12-06 00:14:24,2013-12-06 00:19:41,5分17秒
gsk006,2013-12-06 00:19:45,2013-12-06 00:25:48,6分3秒
gsk006,2013-12-06 00:25:53,2013-12-06 00:45:32,19分39秒
gsk006,2013-12-06 01:15:39,2013-12-06 01:27:15,11分36秒
gsk006,2013-12-06 01:34:05,2013-12-06 01:39:07,5分2秒
gsk006,2013-12-06 01:39:28,2013-12-06 01:45:14,5分46秒
gsk006,2013-12-06 01:46:10,2013-12-06 01:51:56,5分46秒
gsk006,2013-12-06 02:14:37,2013-12-06 07:51:41,5時間37分4秒
gsk006,2013-12-06 08:49:58,2013-12-06 08:58:34,8分36秒
gsk006,2013-12-06 08:58:34,2013-12-06 09:05:08,6分34秒
gsk006,2013-12-06 09:05:10,2013-12-06 09:10:46,5分36秒
gsk006,2013-12-06 09:28:34,2013-12-06 09:35:07,6分33秒
gsk006,2013-12-06 09:52:26,2013-12-06 10:06:30,14分4秒
gsk006,2013-12-06 11:13:13,2013-12-06 11:18:34,5分21秒
gsk006,2013-12-06 11:26:01,2013-12-06 11:31:10,5分9秒
gsk006,2013-12-06 12:40:51,2013-12-06 12:45:53,5分2秒
gsk006,2013-12-06 13:15:44,2013-12-06 13:21:39,5分55秒
gsk006,2013-12-06 13:26:22,2013-12-06 13:33:44,7分22秒
gsk006,2013-12-06 14:26:58,2013-12-06 14:40:46,13分48秒
gsk006,2013-12-06 14:40:46,2013-12-06 14:46:07,5分21秒
gsk006,2013-12-06 14:46:07,2013-12-06 15:17:02,30分55秒
gsk006,2013-12-06 15:17:02,2013-12-06 15:27:12,10分10秒
gsk006,2013-12-06 15:32:05,2013-12-06 15:47:45,15分40秒
gsk006,2013-12-06 15:47:45,2013-12-06 16:06:17,18分32秒
gsk006,2013-12-06 16:17:40,2013-12-06 16:23:55,6分15秒
gsk006,2013-12-06 16:23:55,2013-12-06 16:37:27,13分32秒
gsk006,2013-12-06 16:43:40,2013-12-06 16:50:38,6分58秒
gsk006,2013-12-06 17:57:57,2013-12-06 18:21:45,23分48秒
gsk006,2013-12-06 18:21:45,2013-12-06 18:44:56,23分11秒
gsk006,2013-12-06 18:44:56,2013-12-06 19:18:56,34分
gsk006,2013-12-06 19:18:56,2013-12-06 19:30:20,11分24秒
gsk006,2013-12-06 19:35:11,2013-12-06 19:55:57,20分46秒
gsk006,2013-12-06 19:55:57,2013-12-06 20:28:28,32分31秒
gsk006,2013-12-06 20:28:28,2013-12-06 21:02:04,33分36秒
gsk006,2013-12-06 21:02:04,2013-12-06 21:34:11,32分7秒
gsk006,2013-12-06 21:39:20,2013-12-07 00:45:27,3時間6分7秒
gsk006,2013-12-07 01:44:23,2013-12-07 01:52:48,8分25秒
gsk006,2013-12-07 02:00:47,2013-12-07 02:07:23,6分36秒
gsk006,2013-12-07 02:07:23,2013-12-07 02:14:58,7分35秒
gsk006,2013-12-07 02:14:58,2013-12-07 02:23:07,8分9秒
gsk006,2013-12-07 02:23:07,2013-12-07 02:44:34,21分27秒
gsk006,2013-12-07 02:44:34,2013-12-07 02:56:03,11分29秒
gsk006,2013-12-07 02:56:03,2013-12-07 03:05:24,9分21秒
gsk006,2013-12-07 03:07:25,2013-12-07 03:25:33,18分8秒
gsk006,2013-12-07 03:25:46,2013-12-07 03:56:15,30分29秒
gsk006,2013-12-07 03:56:28,2013-12-07 04:10:47,14分19秒
gsk006,2013-12-07 04:12:43,2013-12-07 04:19:33,6分50秒
gsk006,2013-12-07 04:19:33,2013-12-07 04:26:38,7分5秒
gsk006,2013-12-07 04:26:38,2013-12-07 04:52:11,25分33秒
gsk006,2013-12-07 04:52:11,2013-12-07 04:58:43,6分32秒
gsk006,2013-12-07 05:02:19,2013-12-07 05:21:41,19分22秒
gsk006,2013-12-07 05:21:41,2013-12-07 05:27:28,5分47秒
gsk006,2013-12-07 05:32:00,2013-12-07 05:53:49,21分49秒
gsk006,2013-12-07 05:53:49,2013-12-07 06:02:59,9分10秒
gsk006,2013-12-07 06:17:59,2013-12-07 06:23:04,5分5秒
gsk006,2013-12-07 06:23:04,2013-12-07 06:29:56,6分52秒
gsk006,2013-12-07 06:35:08,2013-12-07 06:50:43,15分35秒
gsk006,2013-12-07 07:26:54,2013-12-07 07:33:40,6分46秒
gsk006,2013-12-07 07:47:52,2013-12-07 07:54:46,6分54秒
gsk006,2013-12-07 07:59:27,2013-12-07 08:05:57,6分30秒
gsk006,2013-12-07 08:05:57,2013-12-07 08:11:09,5分12秒
gsk006,2013-12-07 08:38:43,2013-12-07 08:44:11,5分28秒
gsk006,2013-12-07 08:44:28,2013-12-07 08:54:34,10分6秒
gsk006,2013-12-07 09:17:44,2013-12-07 09:28:35,10分51秒
gsk006,2013-12-07 09:31:51,2013-12-07 09:41:17,9分26秒
gsk006,2013-12-07 09:54:31,2013-12-07 10:00:20,5分49秒
gsk006,2013-12-07 10:07:40,2013-12-07 10:12:41,5分1秒
gsk006,2013-12-07 10:22:14,2013-12-07 10:29:03,6分49秒
gsk006,2013-12-07 12:59:30,2013-12-07 13:14:08,14分38秒
gsk006,2013-12-07 13:14:08,2013-12-07 13:27:23,13分15秒
gsk006,2013-12-07 13:29:14,2013-12-07 13:42:29,13分15秒
gsk006,2013-12-07 13:42:29,2013-12-07 13:51:44,9分15秒
gsk006,2013-12-07 13:51:44,2013-12-07 13:58:10,6分26秒
gsk006,2013-12-07 13:59:10,2013-12-07 14:09:16,10分6秒
gsk006,2013-12-07 14:09:16,2013-12-07 14:30:39,21分23秒
gsk006,2013-12-07 14:30:48,2013-12-07 14:41:48,11分
gsk006,2013-12-07 15:14:58,2013-12-07 15:31:14,16分16秒
gsk006,2013-12-07 15:31:14,2013-12-07 16:04:22,33分8秒
gsk006,2013-12-07 16:14:06,2013-12-07 16:27:32,13分26秒
gsk006,2013-12-07 16:32:49,2013-12-07 16:39:27,6分38秒
gsk006,2013-12-07 16:51:50,2013-12-07 17:01:57,10分7秒
gsk006,2013-12-07 17:51:08,2013-12-07 18:21:55,30分47秒
gsk006,2013-12-07 18:21:55,2013-12-07 18:30:58,9分3秒
gsk006,2013-12-07 18:30:58,2013-12-07 19:01:25,30分27秒
gsk006,2013-12-07 19:01:25,2013-12-07 19:43:06,41分41秒
gsk006,2013-12-07 19:43:06,2013-12-07 20:07:07,24分1秒
gsk006,2013-12-07 20:07:07,2013-12-07 20:39:09,32分2秒
gsk006,2013-12-07 20:39:09,2013-12-07 21:12:52,33分43秒
gsk006,2013-12-07 21:12:52,2013-12-07 21:45:38,32分46秒
gsk006,2013-12-07 21:45:38,2013-12-07 22:17:32,31分54秒
gsk006,2013-12-07 22:17:32,2013-12-07 22:34:21,16分49秒
gsk006,2013-12-07 22:50:12,2013-12-07 22:56:31,6分19秒
gsk006,2013-12-07 23:00:49,2013-12-07 23:08:03,7分14秒
gsk006,2013-12-07 23:08:14,2013-12-07 23:16:29,8分15秒
gsk006,2013-12-07 23:17:16,2013-12-07 23:34:44,17分28秒
gsk006,2013-12-07 23:42:26,2013-12-08 00:16:07,33分41秒
gsk006,2013-12-08 00:16:30,2013-12-08 00:24:37,8分7秒
gsk006,2013-12-08 00:34:15,2013-12-08 00:39:55,5分40秒
gsk006,2013-12-08 00:39:55,2013-12-08 00:49:54,9分59秒
gsk006,2013-12-08 01:15:12,2013-12-08 02:10:23,55分11秒
gsk006,2013-12-08 02:16:26,2013-12-08 02:54:29,38分3秒
gsk006,2013-12-08 03:01:56,2013-12-08 03:09:25,7分29秒
gsk006,2013-12-08 03:14:48,2013-12-08 03:29:02,14分14秒
gsk006,2013-12-08 03:31:23,2013-12-08 04:00:36,29分13秒
gsk006,2013-12-08 04:00:36,2013-12-08 04:16:37,16分1秒
gsk006,2013-12-08 04:16:37,2013-12-08 04:25:19,8分42秒
gsk006,2013-12-08 04:25:28,2013-12-08 04:58:20,32分52秒
gsk006,2013-12-08 04:58:20,2013-12-08 05:05:14,6分54秒
gsk006,2013-12-08 05:05:18,2013-12-08 05:29:32,24分14秒
gsk006,2013-12-08 05:33:00,2013-12-08 05:42:25,9分25秒
gsk006,2013-12-08 05:42:35,2013-12-08 05:49:09,6分34秒
gsk006,2013-12-08 05:49:09,2013-12-08 14:13:30,8時間24分21秒
gsk006,2013-12-08 14:25:17,2013-12-08 14:45:55,20分38秒
gsk006,2013-12-08 14:52:07,2013-12-08 14:58:51,6分44秒
gsk006,2013-12-08 15:23:26,2013-12-08 15:29:30,6分4秒
gsk006,2013-12-08 15:35:44,2013-12-08 15:44:52,9分8秒
gsk006,2013-12-08 15:51:28,2013-12-08 15:58:36,7分8秒
gsk006,2013-12-08 16:03:37,2013-12-08 16:12:14,8分37秒
gsk006,2013-12-08 16:12:14,2013-12-08 16:21:47,9分33秒
gsk006,2013-12-08 16:21:47,2013-12-08 16:27:43,5分56秒
gsk006,2013-12-08 16:27:43,2013-12-08 16:39:19,11分36秒
gsk006,2013-12-08 16:41:27,2013-12-08 16:48:26,6分59秒
gsk006,2013-12-08 16:57:02,2013-12-08 17:02:59,5分57秒
gsk006,2013-12-08 17:04:27,2013-12-08 17:23:59,19分32秒
gsk006,2013-12-08 17:32:58,2013-12-08 17:38:13,5分15秒
gsk006,2013-12-08 17:46:08,2013-12-08 17:58:34,12分26秒
gsk006,2013-12-08 17:58:41,2013-12-08 18:09:29,10分48秒
gsk006,2013-12-08 18:16:16,2013-12-08 18:22:04,5分48秒
gsk006,2013-12-08 18:22:56,2013-12-08 18:28:50,5分54秒
gsk006,2013-12-08 18:52:02,2013-12-08 18:57:48,5分46秒
gsk006,2013-12-08 19:16:37,2013-12-08 19:21:43,5分6秒
gsk006,2013-12-08 19:42:56,2013-12-08 19:51:00,8分4秒
gsk006,2013-12-08 19:51:47,2013-12-08 19:58:13,6分26秒
gsk006,2013-12-08 19:59:49,2013-12-08 20:11:10,11分21秒
gsk006,2013-12-08 20:13:20,2013-12-08 20:21:08,7分48秒
gsk006,2013-12-08 20:26:14,2013-12-08 20:42:33,16分19秒
gsk006,2013-12-08 20:43:22,2013-12-08 20:48:57,5分35秒
gsk006,2013-12-08 21:07:44,2013-12-08 21:18:02,10分18秒
gsk006,2013-12-08 21:18:02,2013-12-08 21:31:29,13分27秒
gsk006,2013-12-08 21:32:21,2013-12-08 21:39:13,6分52秒
gsk006,2013-12-08 21:39:13,2013-12-08 22:11:24,32分11秒
gsk006,2013-12-08 22:15:58,2013-12-08 22:21:15,5分17秒
gsk006,2013-12-08 22:22:04,2013-12-08 22:31:14,9分10秒
gsk006,2013-12-08 22:36:50,2013-12-08 22:41:53,5分3秒
gsk006,2013-12-08 22:50:11,2013-12-08 23:18:58,28分47秒
gsk006,2013-12-08 23:18:58,2013-12-09 10:38:55,11時間19分57秒
gsk006,2013-12-09 10:47:09,2013-12-09 11:05:01,17分52秒
gsk006,2013-12-09 11:22:32,2013-12-09 11:29:58,7分26秒
gsk006,2013-12-09 11:29:58,2013-12-09 11:35:19,5分21秒
gsk006,2013-12-09 11:40:34,2013-12-09 11:46:29,5分55秒
gsk006,2013-12-09 11:53:52,2013-12-09 12:02:16,8分24秒
gsk006,2013-12-09 12:02:16,2013-12-09 12:17:57,15分41秒
gsk006,2013-12-09 12:18:04,2013-12-09 12:29:20,11分16秒
gsk006,2013-12-09 12:32:36,2013-12-09 12:40:52,8分16秒
gsk006,2013-12-09 12:40:52,2013-12-09 12:48:49,7分57秒
gsk006,2013-12-09 12:48:49,2013-12-09 13:18:55,30分6秒
gsk006,2013-12-09 13:18:55,2013-12-09 13:49:43,30分48秒
gsk006,2013-12-09 13:49:43,2013-12-09 14:20:43,31分
gsk006,2013-12-09 14:20:43,2013-12-09 14:32:55,12分12秒
gsk006,2013-12-09 14:58:08,2013-12-09 15:03:53,5分45秒
gsk006,2013-12-09 15:03:53,2013-12-09 15:12:45,8分52秒
gsk006,2013-12-09 15:14:24,2013-12-09 15:21:51,7分27秒
gsk006,2013-12-09 15:35:19,2013-12-09 15:43:31,8分12秒
gsk006,2013-12-09 16:02:05,2013-12-09 21:54:51,5時間52分46秒
gsk006,2013-12-09 22:00:05,2013-12-09 22:10:38,10分33秒
gsk006,2013-12-09 22:17:30,2013-12-09 22:29:21,11分51秒
gsk006,2013-12-09 22:36:17,2013-12-09 22:42:07,5分50秒
gsk006,2013-12-09 22:43:40,2013-12-09 22:58:58,15分18秒
gsk006,2013-12-09 22:58:58,2013-12-09 23:13:25,14分27秒
gsk006,2013-12-09 23:16:56,2013-12-09 23:31:44,14分48秒
gsk006,2013-12-09 23:31:45,2013-12-09 23:39:32,7分47秒
gsk006,2013-12-09 23:39:32,2013-12-09 23:46:26,6分54秒
gsk006,2013-12-09 23:46:26,2013-12-09 23:56:45,10分19秒
gsk006,2013-12-09 23:56:45,2013-12-10 00:16:46,20分1秒
gsk006,2013-12-10 00:16:57,2013-12-10 00:36:23,19分26秒
gsk006,2013-12-10 00:36:42,2013-12-10 00:45:20,8分38秒
gsk006,2013-12-10 00:48:00,2013-12-10 00:55:07,7分7秒
gsk006,2013-12-10 00:57:49,2013-12-10 01:09:37,11分48秒
gsk006,2013-12-10 01:26:10,2013-12-10 01:32:36,6分26秒
gsk006,2013-12-10 01:36:48,2013-12-10 01:48:33,11分45秒
gsk006,2013-12-10 01:48:46,2013-12-10 01:54:55,6分9秒
gsk006,2013-12-10 01:54:55,2013-12-10 02:01:34,6分39秒
gsk006,2013-12-10 02:13:42,2013-12-10 07:53:24,5時間39分42秒
gsk006,2013-12-10 08:17:54,2013-12-10 08:26:00,8分6秒
gsk006,2013-12-10 08:26:00,2013-12-10 17:12:55,8時間46分55秒
gsk006,2013-12-10 17:16:11,2013-12-10 17:50:15,34分4秒
gsk006,2013-12-10 17:51:46,2013-12-10 18:04:33,12分47秒
gsk006,2013-12-10 18:06:29,2013-12-10 18:11:30,5分1秒
gsk006,2013-12-10 18:11:58,2013-12-10 18:25:05,13分7秒
gsk006,2013-12-10 18:28:54,2013-12-10 18:41:42,12分48秒
gsk006,2013-12-10 18:41:53,2013-12-10 19:06:57,25分4秒
gsk006,2013-12-10 19:06:57,2013-12-10 19:16:30,9分33秒
gsk006,2013-12-10 19:17:15,2013-12-10 19:25:45,8分30秒
gsk006,2013-12-10 19:26:29,2013-12-10 19:33:45,7分16秒
gsk006,2013-12-10 19:41:53,2013-12-10 19:50:49,8分56秒
gsk006,2013-12-10 20:00:08,2013-12-10 20:05:37,5分29秒
gsk006,2013-12-10 20:05:37,2013-12-10 20:12:59,7分22秒
gsk006,2013-12-10 20:17:59,2013-12-10 20:38:30,20分31秒
gsk006,2013-12-10 20:38:30,2013-12-10 21:11:26,32分56秒
gsk006,2013-12-10 21:11:26,2013-12-10 21:47:22,35分56秒
gsk006,2013-12-10 21:47:35,2013-12-10 22:47:17,59分42秒
gsk006,2013-12-10 23:28:59,2013-12-10 23:53:20,24分21秒
gsk006,2013-12-10 23:53:20,2013-12-11 00:03:23,10分3秒
gsk006,2013-12-11 00:03:23,2013-12-11 00:09:13,5分50秒
gsk006,2013-12-11 00:12:10,2013-12-11 00:18:17,6分7秒
gsk006,2013-12-11 00:46:44,2013-12-11 00:52:48,6分4秒
gsk006,2013-12-11 01:11:36,2013-12-11 01:16:55,5分19秒
gsk006,2013-12-11 01:16:55,2013-12-11 01:22:15,5分20秒
gsk006,2013-12-11 01:28:14,2013-12-11 01:36:33,8分19秒
gsk006,2013-12-11 02:03:16,2013-12-11 02:10:37,7分21秒
gsk006,2013-12-11 02:15:08,2013-12-11 02:25:33,10分25秒
gsk006,2013-12-11 02:36:26,2013-12-11 02:41:59,5分33秒
gsk006,2013-12-11 02:46:01,2013-12-11 02:57:01,11分
gsk006,2013-12-11 02:57:31,2013-12-11 03:02:44,5分13秒
gsk006,2013-12-11 03:12:32,2013-12-11 03:21:02,8分30秒
gsk006,2013-12-11 03:21:23,2013-12-11 03:26:38,5分15秒
gsk006,2013-12-11 03:35:04,2013-12-11 03:41:35,6分31秒
gsk006,2013-12-11 03:41:35,2013-12-11 03:47:02,5分27秒
gsk006,2013-12-11 03:57:03,2013-12-11 04:05:18,8分15秒
gsk006,2013-12-11 04:17:50,2013-12-11 04:27:17,9分27秒
gsk006,2013-12-11 04:29:20,2013-12-11 04:37:31,8分11秒
gsk006,2013-12-11 05:29:58,2013-12-11 05:38:57,8分59秒
gsk006,2013-12-11 05:39:05,2013-12-11 05:52:17,13分12秒
gsk006,2013-12-11 06:14:54,2013-12-11 06:21:34,6分40秒
gsk006,2013-12-11 06:25:12,2013-12-11 06:30:46,5分34秒
gsk006,2013-12-11 06:31:52,2013-12-11 06:41:14,9分22秒
gsk006,2013-12-11 06:41:14,2013-12-11 06:53:12,11分58秒
gsk006,2013-12-11 06:53:22,2013-12-11 06:59:44,6分22秒
gsk006,2013-12-11 07:00:53,2013-12-11 07:10:50,9分57秒
gsk006,2013-12-11 07:11:53,2013-12-11 07:31:07,19分14秒
gsk006,2013-12-11 07:31:07,2013-12-11 07:38:17,7分10秒
gsk006,2013-12-11 07:55:27,2013-12-11 08:02:02,6分35秒
gsk006,2013-12-11 08:02:02,2013-12-11 08:39:46,37分44秒
gsk006,2013-12-11 08:39:49,2013-12-11 09:00:57,21分8秒
gsk006,2013-12-11 09:00:57,2013-12-11 09:09:52,8分55秒
gsk006,2013-12-11 09:09:52,2013-12-11 09:27:01,17分9秒
gsk006,2013-12-11 09:27:01,2013-12-11 09:34:32,7分31秒
gsk006,2013-12-11 09:34:32,2013-12-11 09:41:04,6分32秒
gsk006,2013-12-11 09:52:12,2013-12-11 10:01:37,9分25秒
gsk006,2013-12-11 10:19:31,2013-12-11 10:26:14,6分43秒
gsk006,2013-12-11 10:36:12,2013-12-11 10:42:26,6分14秒
gsk006,2013-12-11 10:42:33,2013-12-11 10:48:35,6分2秒
gsk006,2013-12-11 10:48:46,2013-12-11 10:55:04,6分18秒
gsk006,2013-12-11 12:03:45,2013-12-11 12:09:40,5分55秒
gsk006,2013-12-11 12:41:49,2013-12-11 12:51:37,9分48秒
gsk006,2013-12-11 14:41:59,2013-12-11 14:47:14,5分15秒
gsk006,2013-12-11 14:53:02,2013-12-11 14:59:17,6分15秒
gsk006,2013-12-11 15:02:25,2013-12-11 15:10:21,7分56秒
gsk006,2013-12-11 15:10:21,2013-12-11 15:24:28,14分7秒
gsk006,2013-12-11 15:53:14,2013-12-11 15:59:09,5分55秒
gsk006,2013-12-11 17:58:56,2013-12-11 18:04:45,5分49秒
gsk006,2013-12-11 18:04:45,2013-12-11 18:25:48,21分3秒
gsk006,2013-12-11 18:25:48,2013-12-11 18:56:14,30分26秒
gsk006,2013-12-11 18:56:14,2013-12-11 19:26:41,30分27秒
gsk006,2013-12-11 19:26:41,2013-12-11 19:32:09,5分28秒
gsk006,2013-12-11 20:14:42,2013-12-11 20:32:38,17分56秒
gsk006,2013-12-11 22:48:59,2013-12-11 22:58:24,9分25秒
gsk006,2013-12-11 23:01:19,2013-12-11 23:08:58,7分39秒
gsk006,2013-12-11 23:14:37,2013-12-11 23:36:14,21分37秒
gsk006,2013-12-11 23:36:14,2013-12-11 23:46:00,9分46秒
gsk006,2013-12-11 23:49:26,2013-12-11 23:59:08,9分42秒
gsk006,2013-12-11 23:59:09,2013-12-12 00:22:01,22分52秒
gsk006,2013-12-12 00:22:01,2013-12-12 00:30:02,8分1秒
gsk006,2013-12-12 00:30:02,2013-12-12 00:40:00,9分58秒
gsk006,2013-12-12 00:40:00,2013-12-12 00:45:59,5分59秒
gsk006,2013-12-12 00:47:40,2013-12-12 00:55:53,8分13秒
gsk006,2013-12-12 01:09:47,2013-12-12 01:32:51,23分4秒
gsk006,2013-12-12 01:32:51,2013-12-12 01:38:36,5分45秒
gsk006,2013-12-12 01:46:13,2013-12-12 01:57:47,11分34秒
gsk006,2013-12-12 02:12:54,2013-12-12 02:18:49,5分55秒
gsk006,2013-12-12 02:19:17,2013-12-12 02:28:40,9分23秒
gsk006,2013-12-12 02:40:30,2013-12-12 02:48:52,8分22秒
gsk006,2013-12-12 02:50:31,2013-12-12 02:58:59,8分28秒
gsk006,2013-12-12 03:14:02,2013-12-12 03:22:10,8分8秒
gsk006,2013-12-12 03:36:49,2013-12-12 03:44:03,7分14秒
gsk006,2013-12-12 04:17:15,2013-12-12 04:23:27,6分12秒
gsk006,2013-12-12 04:59:18,2013-12-12 05:04:52,5分34秒
gsk006,2013-12-12 05:27:55,2013-12-12 05:39:59,12分4秒
gsk006,2013-12-12 05:44:43,2013-12-12 05:52:30,7分47秒
gsk006,2013-12-12 05:58:43,2013-12-12 06:07:38,8分55秒
gsk006,2013-12-12 06:07:48,2013-12-12 06:22:17,14分29秒
gsk006,2013-12-12 06:45:38,2013-12-12 06:51:04,5分26秒
gsk006,2013-12-12 07:06:07,2013-12-12 07:11:38,5分31秒
gsk006,2013-12-12 07:29:47,2013-12-12 07:36:10,6分23秒
gsk006,2013-12-12 07:53:59,2013-12-12 07:59:59,6分
gsk006,2013-12-12 08:01:40,2013-12-12 08:09:50,8分10秒
gsk006,2013-12-12 08:39:52,2013-12-12 08:45:13,5分21秒
gsk006,2013-12-12 09:00:45,2013-12-12 09:08:17,7分32秒
gsk006,2013-12-12 09:16:08,2013-12-12 09:23:15,7分7秒
gsk006,2013-12-12 12:35:17,2013-12-12 12:43:54,8分37秒
gsk006,2013-12-12 13:30:15,2013-12-12 13:35:19,5分4秒
gsk006,2013-12-12 13:35:33,2013-12-12 13:49:28,13分55秒
gsk006,2013-12-12 13:49:28,2013-12-12 14:02:40,13分12秒
gsk006,2013-12-12 14:30:53,2013-12-12 14:37:36,6分43秒
gsk006,2013-12-12 14:37:36,2013-12-12 15:07:40,30分4秒
gsk006,2013-12-12 15:07:40,2013-12-12 15:38:14,30分34秒
gsk006,2013-12-12 15:54:36,2013-12-12 16:02:03,7分27秒
gsk006,2013-12-12 16:22:10,2013-12-12 16:32:39,10分29秒
gsk006,2013-12-12 16:41:55,2013-12-12 17:02:13,20分18秒
gsk006,2013-12-12 17:02:33,2013-12-12 17:21:02,18分29秒
gsk006,2013-12-12 17:56:46,2013-12-12 19:57:03,2時間17秒
gsk006,2013-12-12 20:03:26,2013-12-12 20:09:20,5分54秒
gsk006,2013-12-12 20:11:50,2013-12-12 20:27:39,15分49秒
gsk006,2013-12-12 20:31:55,2013-12-12 20:37:07,5分12秒
gsk006,2013-12-12 20:39:00,2013-12-12 20:45:10,6分10秒
gsk006,2013-12-12 21:02:55,2013-12-12 21:08:58,6分3秒
gsk006,2013-12-12 21:11:14,2013-12-12 21:18:51,7分37秒
gsk006,2013-12-12 21:19:19,2013-12-12 21:27:25,8分6秒
gsk006,2013-12-12 21:27:25,2013-12-12 21:33:18,5分53秒
gsk006,2013-12-12 21:43:11,2013-12-12 21:57:12,14分1秒
gsk006,2013-12-12 22:34:46,2013-12-12 22:40:00,5分14秒
gsk006,2013-12-12 22:40:10,2013-12-12 22:51:28,11分18秒
gsk006,2013-12-12 23:10:17,2013-12-12 23:27:25,17分8秒
gsk006,2013-12-12 23:27:25,2013-12-12 23:35:41,8分16秒
gsk006,2013-12-12 23:36:13,2013-12-12 23:46:51,10分38秒
gsk006,2013-12-13 00:08:15,2013-12-13 00:19:22,11分7秒
gsk006,2013-12-13 00:19:22,2013-12-13 00:27:52,8分30秒
gsk006,2013-12-13 00:29:22,2013-12-13 00:45:26,16分4秒
gsk006,2013-12-13 00:45:26,2013-12-13 00:56:51,11分25秒
gsk006,2013-12-13 01:08:38,2013-12-13 01:13:59,5分21秒
gsk006,2013-12-13 01:13:59,2013-12-13 01:19:16,5分17秒
gsk006,2013-12-13 02:04:51,2013-12-13 02:10:52,6分1秒
gsk006,2013-12-13 02:10:52,2013-12-13 02:23:44,12分52秒
gsk006,2013-12-13 02:35:29,2013-12-13 02:42:09,6分40秒
gsk006,2013-12-13 02:47:01,2013-12-13 02:58:37,11分36秒
gsk006,2013-12-13 03:01:03,2013-12-13 03:16:51,15分48秒
gsk006,2013-12-13 03:17:15,2013-12-13 03:42:04,24分49秒
gsk006,2013-12-13 03:42:16,2013-12-13 03:51:59,9分43秒
gsk006,2013-12-13 04:06:05,2013-12-13 04:14:01,7分56秒
gsk006,2013-12-13 04:24:03,2013-12-13 04:31:07,7分4秒
gsk006,2013-12-13 04:45:42,2013-12-13 04:59:53,14分11秒
gsk006,2013-12-13 05:16:45,2013-12-13 05:30:03,13分18秒
gsk006,2013-12-13 05:41:31,2013-12-13 05:47:27,5分56秒
gsk006,2013-12-13 05:52:20,2013-12-13 06:03:52,11分32秒
gsk006,2013-12-13 06:03:52,2013-12-13 06:15:48,11分56秒
gsk006,2013-12-13 06:19:07,2013-12-13 06:33:33,14分26秒
gsk006,2013-12-13 06:50:11,2013-12-13 06:55:58,5分47秒
gsk006,2013-12-13 06:55:58,2013-12-13 07:02:12,6分14秒
gsk006,2013-12-13 07:05:33,2013-12-13 07:14:56,9分23秒
gsk006,2013-12-13 07:15:33,2013-12-13 07:26:05,10分32秒
gsk006,2013-12-13 07:43:53,2013-12-13 07:50:11,6分18秒
gsk006,2013-12-13 07:56:42,2013-12-13 08:02:27,5分45秒
gsk006,2013-12-13 08:05:51,2013-12-13 08:10:58,5分7秒
gsk006,2013-12-13 08:11:25,2013-12-13 08:16:41,5分16秒
gsk006,2013-12-13 08:16:41,2013-12-13 08:31:08,14分27秒
gsk006,2013-12-13 08:31:08,2013-12-13 08:40:11,9分3秒
gsk006,2013-12-13 08:41:21,2013-12-13 08:46:34,5分13秒
gsk006,2013-12-13 08:51:56,2013-12-13 08:57:40,5分44秒
gsk006,2013-12-13 08:57:40,2013-12-13 09:12:02,14分22秒
gsk006,2013-12-13 09:12:08,2013-12-13 09:34:42,22分34秒
gsk006,2013-12-13 12:55:56,2013-12-13 13:09:59,14分3秒
gsk006,2013-12-13 13:11:29,2013-12-13 13:21:39,10分10秒
gsk006,2013-12-13 13:51:30,2013-12-13 13:58:36,7分6秒
gsk006,2013-12-13 13:58:37,2013-12-13 14:07:40,9分3秒
gsk006,2013-12-13 14:07:40,2013-12-13 14:26:13,18分33秒
gsk006,2013-12-13 14:35:10,2013-12-13 14:47:37,12分27秒
gsk006,2013-12-13 14:47:51,2013-12-13 14:59:15,11分24秒
gsk006,2013-12-13 15:40:34,2013-12-13 15:47:28,6分54秒
gsk006,2013-12-13 16:06:17,2013-12-13 16:11:39,5分22秒
gsk006,2013-12-13 16:30:03,2013-12-13 16:44:36,14分33秒
gsk006,2013-12-13 16:44:36,2013-12-13 16:58:08,13分32秒
gsk006,2013-12-13 16:58:08,2013-12-13 17:04:44,6分36秒
gsk006,2013-12-13 17:30:03,2013-12-13 17:37:33,7分30秒
gsk006,2013-12-13 18:12:24,2013-12-13 18:21:12,8分48秒
gsk006,2013-12-13 18:26:36,2013-12-13 18:35:54,9分18秒
gsk006,2013-12-13 18:43:11,2013-12-13 18:49:57,6分46秒
gsk006,2013-12-13 18:57:10,2013-12-13 19:07:05,9分55秒
gsk006,2013-12-13 19:08:27,2013-12-13 19:16:44,8分17秒
gsk006,2013-12-13 19:18:19,2013-12-13 19:26:22,8分3秒
gsk006,2013-12-13 19:26:22,2013-12-13 19:31:26,5分4秒
gsk006,2013-12-13 19:37:24,2013-12-13 19:45:37,8分13秒
gsk006,2013-12-13 20:40:16,2013-12-13 20:47:10,6分54秒
gsk006,2013-12-13 21:31:21,2013-12-13 21:38:08,6分47秒
gsk006,2013-12-13 21:38:22,2013-12-13 21:43:56,5分34秒
gsk006,2013-12-13 21:54:26,2013-12-13 22:00:53,6分27秒
gsk006,2013-12-13 22:15:13,2013-12-13 22:20:53,5分40秒
gsk006,2013-12-13 22:20:53,2013-12-13 22:35:41,14分48秒
gsk006,2013-12-13 22:43:13,2013-12-13 22:49:21,6分8秒
gsk006,2013-12-13 23:00:34,2013-12-13 23:12:36,12分2秒
gsk006,2013-12-13 23:12:36,2013-12-13 23:45:57,33分21秒
gsk006,2013-12-13 23:45:57,2013-12-13 23:55:36,9分39秒
gsk007,2013-12-04 09:33:43,2013-12-04 09:43:41,9分58秒
gsk007,2013-12-04 09:48:05,2013-12-04 09:59:50,11分45秒
gsk007,2013-12-04 09:59:50,2013-12-04 10:12:59,13分9秒
gsk007,2013-12-04 10:29:12,2013-12-04 10:35:36,6分24秒
gsk007,2013-12-04 10:37:26,2013-12-04 11:00:10,22分44秒
gsk007,2013-12-04 11:09:20,2013-12-04 11:34:13,24分53秒
gsk007,2013-12-04 11:38:27,2013-12-04 11:46:55,8分28秒
gsk007,2013-12-04 12:17:18,2013-12-04 12:48:59,31分41秒
gsk007,2013-12-04 12:58:51,2013-12-04 14:17:53,1時間19分2秒
gsk007,2013-12-04 14:24:22,2013-12-04 14:31:51,7分29秒
gsk007,2013-12-04 15:01:35,2013-12-04 15:08:21,6分46秒
gsk007,2013-12-04 15:14:36,2013-12-04 15:20:25,5分49秒
gsk007,2013-12-04 15:20:25,2013-12-04 15:40:34,20分9秒
gsk007,2013-12-04 15:40:34,2013-12-04 15:52:07,11分33秒
gsk007,2013-12-04 16:49:21,2013-12-04 17:01:47,12分26秒
gsk007,2013-12-04 17:06:50,2013-12-04 17:19:35,12分45秒
gsk007,2013-12-04 17:19:35,2013-12-04 17:57:09,37分34秒
gsk007,2013-12-04 17:57:09,2013-12-04 18:55:48,58分39秒
gsk007,2013-12-04 19:03:18,2013-12-04 19:10:28,7分10秒
gsk007,2013-12-04 19:13:57,2013-12-04 19:19:19,5分22秒
gsk007,2013-12-04 19:33:00,2013-12-04 19:39:36,6分36秒
gsk007,2013-12-04 19:44:15,2013-12-04 19:50:40,6分25秒
gsk007,2013-12-04 19:50:40,2013-12-04 20:00:31,9分51秒
gsk007,2013-12-04 20:03:02,2013-12-04 20:09:58,6分56秒
gsk007,2013-12-04 20:09:58,2013-12-04 20:18:09,8分11秒
gsk007,2013-12-04 20:18:25,2013-12-04 20:48:04,29分39秒
gsk007,2013-12-04 20:48:04,2013-12-04 21:15:09,27分5秒
gsk007,2013-12-04 21:16:03,2013-12-04 21:31:56,15分53秒
gsk007,2013-12-04 21:34:03,2013-12-04 21:39:38,5分35秒
gsk007,2013-12-04 22:05:33,2013-12-04 22:23:28,17分55秒
gsk007,2013-12-04 22:30:48,2013-12-04 22:36:25,5分37秒
gsk007,2013-12-04 22:39:50,2013-12-04 23:19:15,39分25秒
gsk007,2013-12-04 23:25:44,2013-12-04 23:36:18,10分34秒
gsk007,2013-12-04 23:37:08,2013-12-05 01:00:13,1時間23分5秒
gsk007,2013-12-05 01:02:24,2013-12-05 01:08:47,6分23秒
gsk007,2013-12-05 01:28:09,2013-12-05 01:36:31,8分22秒
gsk007,2013-12-05 01:36:31,2013-12-05 01:55:42,19分11秒
gsk007,2013-12-05 01:55:42,2013-12-05 02:07:03,11分21秒
gsk007,2013-12-05 02:08:14,2013-12-05 02:48:04,39分50秒
gsk007,2013-12-05 04:08:14,2013-12-05 04:16:20,8分6秒
gsk007,2013-12-05 04:16:23,2013-12-05 04:32:05,15分42秒
gsk007,2013-12-05 04:54:42,2013-12-05 05:01:05,6分23秒
gsk007,2013-12-05 05:01:05,2013-12-05 05:13:33,12分28秒
gsk007,2013-12-05 05:24:50,2013-12-05 05:41:24,16分34秒
gsk007,2013-12-05 05:44:22,2013-12-05 06:03:49,19分27秒
gsk007,2013-12-05 06:03:49,2013-12-05 06:15:23,11分34秒
gsk007,2013-12-05 06:15:23,2013-12-05 06:53:22,37分59秒
gsk007,2013-12-05 06:55:09,2013-12-05 07:12:48,17分39秒
gsk007,2013-12-05 07:12:48,2013-12-05 07:25:27,12分39秒
gsk007,2013-12-05 07:56:08,2013-12-05 08:03:55,7分47秒
gsk007,2013-12-05 08:03:57,2013-12-05 08:11:00,7分3秒
gsk007,2013-12-05 08:11:00,2013-12-05 08:57:16,46分16秒
gsk007,2013-12-05 08:57:16,2013-12-05 09:22:31,25分15秒
gsk007,2013-12-05 09:27:11,2013-12-05 09:36:03,8分52秒
gsk007,2013-12-05 09:40:51,2013-12-05 09:46:09,5分18秒
gsk007,2013-12-05 09:46:09,2013-12-05 09:57:46,11分37秒
gsk007,2013-12-05 09:57:46,2013-12-05 10:04:09,6分23秒
gsk007,2013-12-05 10:16:10,2013-12-05 10:26:18,10分8秒
gsk007,2013-12-05 10:26:18,2013-12-05 10:48:23,22分5秒
gsk007,2013-12-05 10:48:23,2013-12-05 11:11:23,23分
gsk007,2013-12-05 11:14:08,2013-12-05 11:23:40,9分32秒
gsk007,2013-12-05 11:23:40,2013-12-05 11:46:42,23分2秒
gsk007,2013-12-05 11:46:42,2013-12-05 12:32:00,45分18秒
gsk007,2013-12-05 12:32:00,2013-12-05 12:52:05,20分5秒
gsk007,2013-12-05 12:58:11,2013-12-05 13:03:26,5分15秒
gsk007,2013-12-05 13:09:36,2013-12-05 13:19:56,10分20秒
gsk007,2013-12-05 13:50:04,2013-12-05 14:07:16,17分12秒
gsk007,2013-12-05 14:10:14,2013-12-05 14:20:10,9分56秒
gsk007,2013-12-05 14:23:24,2013-12-05 14:30:10,6分46秒
gsk007,2013-12-05 14:41:15,2013-12-05 14:48:49,7分34秒
gsk007,2013-12-05 15:15:33,2013-12-05 15:21:17,5分44秒
gsk007,2013-12-05 15:24:07,2013-12-05 19:00:48,3時間36分41秒
gsk007,2013-12-05 19:06:04,2013-12-05 19:27:22,21分18秒
gsk007,2013-12-05 19:54:04,2013-12-05 23:35:14,3時間41分10秒
gsk007,2013-12-05 23:55:31,2013-12-06 00:23:52,28分21秒
gsk007,2013-12-06 00:27:14,2013-12-06 00:35:38,8分24秒
gsk007,2013-12-06 00:37:01,2013-12-06 00:46:08,9分7秒
gsk007,2013-12-06 00:56:54,2013-12-06 01:08:23,11分29秒
gsk007,2013-12-06 01:12:56,2013-12-06 01:18:36,5分40秒
gsk007,2013-12-06 01:30:59,2013-12-06 01:38:41,7分42秒
gsk007,2013-12-06 01:39:57,2013-12-06 02:09:52,29分55秒
gsk007,2013-12-06 02:09:52,2013-12-06 02:39:54,30分2秒
gsk007,2013-12-06 02:39:54,2013-12-06 02:52:08,12分14秒
gsk007,2013-12-06 02:52:08,2013-12-06 03:18:42,26分34秒
gsk007,2013-12-06 03:18:42,2013-12-06 03:25:52,7分10秒
gsk007,2013-12-06 03:29:45,2013-12-06 03:35:49,6分4秒
gsk007,2013-12-06 03:36:09,2013-12-06 03:45:16,9分7秒
gsk007,2013-12-06 03:51:07,2013-12-06 04:25:03,33分56秒
gsk007,2013-12-06 04:30:02,2013-12-06 04:36:53,6分51秒
gsk007,2013-12-06 04:36:53,2013-12-06 04:54:43,17分50秒
gsk007,2013-12-06 04:54:43,2013-12-06 05:16:18,21分35秒
gsk007,2013-12-06 05:16:18,2013-12-06 05:23:18,7分
gsk007,2013-12-06 05:23:18,2013-12-06 05:45:13,21分55秒
gsk007,2013-12-06 05:45:13,2013-12-06 06:46:49,1時間1分36秒
gsk007,2013-12-06 06:46:49,2013-12-06 07:05:30,18分41秒
gsk007,2013-12-06 07:05:30,2013-12-06 07:38:04,32分34秒
gsk007,2013-12-06 07:38:09,2013-12-06 08:15:58,37分49秒
gsk007,2013-12-06 08:15:58,2013-12-06 08:51:21,35分23秒
gsk007,2013-12-06 08:51:21,2013-12-06 09:14:53,23分32秒
gsk007,2013-12-06 09:42:51,2013-12-06 12:37:14,2時間54分23秒
gsk007,2013-12-06 12:39:07,2013-12-06 12:44:40,5分33秒
gsk007,2013-12-06 12:44:49,2013-12-06 13:03:42,18分53秒
gsk007,2013-12-06 13:12:16,2013-12-06 13:18:05,5分49秒
gsk007,2013-12-06 13:18:05,2013-12-06 13:54:39,36分34秒
gsk007,2013-12-06 13:54:43,2013-12-06 14:02:24,7分41秒
gsk007,2013-12-06 14:10:22,2013-12-06 14:31:09,20分47秒
gsk007,2013-12-06 14:35:11,2013-12-06 14:42:44,7分33秒
gsk007,2013-12-06 14:44:29,2013-12-06 16:04:08,1時間19分39秒
gsk007,2013-12-06 16:50:12,2013-12-06 16:55:12,5分
gsk007,2013-12-06 16:57:44,2013-12-06 17:33:32,35分48秒
gsk007,2013-12-06 18:44:45,2013-12-06 18:52:55,8分10秒
gsk007,2013-12-06 19:37:13,2013-12-06 19:43:00,5分47秒
gsk007,2013-12-06 20:21:26,2013-12-06 20:27:50,6分24秒
gsk007,2013-12-06 21:13:55,2013-12-06 21:23:51,9分56秒
gsk007,2013-12-06 21:23:51,2013-12-06 21:36:56,13分5秒
gsk007,2013-12-06 21:36:56,2013-12-06 21:57:53,20分57秒
gsk007,2013-12-06 22:11:38,2013-12-06 22:19:56,8分18秒
gsk007,2013-12-06 22:20:45,2013-12-06 22:46:56,26分11秒
gsk007,2013-12-07 00:16:37,2013-12-07 00:36:51,20分14秒
gsk007,2013-12-07 00:41:54,2013-12-07 00:58:10,16分16秒
gsk007,2013-12-07 01:25:41,2013-12-07 01:31:26,5分45秒
gsk007,2013-12-07 01:31:48,2013-12-07 02:07:21,35分33秒
gsk007,2013-12-07 02:10:53,2013-12-07 02:38:23,27分30秒
gsk007,2013-12-07 02:43:40,2013-12-07 02:51:54,8分14秒
gsk007,2013-12-07 03:51:32,2013-12-07 09:03:11,5時間11分39秒
gsk007,2013-12-07 09:13:57,2013-12-07 09:48:41,34分44秒
gsk007,2013-12-07 10:31:55,2013-12-07 11:12:46,40分51秒
gsk007,2013-12-07 11:12:46,2013-12-07 11:19:54,7分8秒
gsk007,2013-12-07 11:28:05,2013-12-07 11:33:09,5分4秒
gsk007,2013-12-07 13:04:42,2013-12-07 13:13:14,8分32秒
gsk007,2013-12-07 13:19:31,2013-12-07 13:47:15,27分44秒
gsk007,2013-12-07 14:24:46,2013-12-07 14:32:43,7分57秒
gsk007,2013-12-07 14:55:18,2013-12-07 15:23:42,28分24秒
gsk007,2013-12-07 16:07:56,2013-12-07 17:21:52,1時間13分56秒
gsk007,2013-12-07 17:27:18,2013-12-07 18:32:26,1時間5分8秒
gsk007,2013-12-07 18:32:42,2013-12-07 18:41:10,8分28秒
gsk007,2013-12-07 19:02:57,2013-12-07 19:29:11,26分14秒
gsk007,2013-12-07 19:46:56,2013-12-07 20:14:31,27分35秒
gsk007,2013-12-07 20:15:36,2013-12-07 20:24:09,8分33秒
gsk007,2013-12-07 20:32:06,2013-12-07 20:40:46,8分40秒
gsk007,2013-12-07 20:40:46,2013-12-07 20:45:46,5分
gsk007,2013-12-07 20:45:46,2013-12-07 21:00:46,15分
gsk007,2013-12-07 21:00:46,2013-12-07 21:13:18,12分32秒
gsk007,2013-12-07 21:13:18,2013-12-07 21:54:19,41分1秒
gsk007,2013-12-07 22:28:53,2013-12-07 22:34:51,5分58秒
gsk007,2013-12-07 22:34:51,2013-12-07 22:41:01,6分10秒
gsk007,2013-12-07 22:45:12,2013-12-07 22:54:27,9分15秒
gsk007,2013-12-07 22:54:27,2013-12-07 23:07:43,13分16秒
gsk007,2013-12-07 23:07:43,2013-12-07 23:34:24,26分41秒
gsk007,2013-12-07 23:34:24,2013-12-08 00:11:27,37分3秒
gsk007,2013-12-08 00:11:27,2013-12-08 00:20:28,9分1秒
gsk007,2013-12-08 00:20:28,2013-12-08 00:28:56,8分28秒
gsk007,2013-12-08 00:28:56,2013-12-08 00:34:10,5分14秒
gsk007,2013-12-08 01:04:03,2013-12-08 01:10:48,6分45秒
gsk007,2013-12-08 01:13:17,2013-12-08 01:30:58,17分41秒
gsk007,2013-12-08 01:32:48,2013-12-08 01:40:35,7分47秒
gsk007,2013-12-08 01:46:50,2013-12-08 01:52:13,5分23秒
gsk007,2013-12-08 01:57:57,2013-12-08 02:06:15,8分18秒
gsk007,2013-12-08 02:06:15,2013-12-08 02:32:04,25分49秒
gsk007,2013-12-08 02:37:37,2013-12-08 02:45:04,7分27秒
gsk007,2013-12-08 03:22:07,2013-12-08 03:55:44,33分37秒
gsk007,2013-12-08 03:55:44,2013-12-08 04:23:10,27分26秒
gsk007,2013-12-08 04:36:11,2013-12-08 04:43:11,7分
gsk007,2013-12-08 04:50:54,2013-12-08 04:56:29,5分35秒
gsk007,2013-12-08 05:04:59,2013-12-08 05:14:30,9分31秒
gsk007,2013-12-08 05:17:14,2013-12-08 05:36:36,19分22秒
gsk007,2013-12-08 05:36:36,2013-12-08 05:43:45,7分9秒
gsk007,2013-12-08 05:43:45,2013-12-08 06:15:02,31分17秒
gsk007,2013-12-08 06:15:02,2013-12-08 06:34:20,19分18秒
gsk007,2013-12-08 06:34:20,2013-12-08 06:55:59,21分39秒
gsk007,2013-12-08 06:55:59,2013-12-08 07:29:16,33分17秒
gsk007,2013-12-08 07:59:42,2013-12-08 08:11:55,12分13秒
gsk007,2013-12-08 08:11:55,2013-12-08 09:18:45,1時間6分50秒
gsk007,2013-12-08 09:22:40,2013-12-08 09:36:34,13分54秒
gsk007,2013-12-08 09:40:22,2013-12-08 09:49:22,9分
gsk007,2013-12-08 09:49:22,2013-12-08 09:56:20,6分58秒
gsk007,2013-12-08 09:56:20,2013-12-08 10:05:40,9分20秒
gsk007,2013-12-08 10:05:40,2013-12-08 10:21:47,16分7秒
gsk007,2013-12-08 10:21:47,2013-12-08 10:31:53,10分6秒
gsk007,2013-12-08 10:36:46,2013-12-08 10:50:49,14分3秒
gsk007,2013-12-08 10:53:23,2013-12-08 11:24:23,31分
gsk007,2013-12-08 11:24:23,2013-12-08 11:57:21,32分58秒
gsk007,2013-12-08 12:10:38,2013-12-08 12:28:13,17分35秒
gsk007,2013-12-08 12:42:12,2013-12-08 12:52:21,10分9秒
gsk007,2013-12-08 12:52:21,2013-12-08 13:11:07,18分46秒
gsk007,2013-12-08 13:11:07,2013-12-08 13:21:59,10分52秒
gsk007,2013-12-08 13:21:59,2013-12-08 13:39:54,17分55秒
gsk007,2013-12-08 13:46:01,2013-12-08 13:53:21,7分20秒
gsk007,2013-12-08 13:56:16,2013-12-08 14:25:10,28分54秒
gsk007,2013-12-08 14:30:47,2013-12-08 14:47:08,16分21秒
gsk007,2013-12-08 14:48:41,2013-12-08 15:04:12,15分31秒
gsk007,2013-12-08 15:54:22,2013-12-08 16:33:53,39分31秒
gsk007,2013-12-08 18:17:23,2013-12-08 18:54:26,37分3秒
gsk007,2013-12-08 18:58:32,2013-12-08 19:05:09,6分37秒
gsk007,2013-12-08 19:05:09,2013-12-08 19:18:25,13分16秒
gsk007,2013-12-08 19:18:25,2013-12-08 19:29:57,11分32秒
gsk007,2013-12-08 19:29:57,2013-12-08 20:02:24,32分27秒
gsk007,2013-12-08 20:02:24,2013-12-08 20:35:11,32分47秒
gsk007,2013-12-08 20:35:11,2013-12-08 21:18:14,43分3秒
gsk007,2013-12-08 21:18:14,2013-12-08 21:56:48,38分34秒
gsk007,2013-12-08 22:21:57,2013-12-08 23:13:22,51分25秒
gsk007,2013-12-08 23:21:53,2013-12-08 23:37:02,15分9秒
gsk007,2013-12-08 23:37:02,2013-12-09 00:02:40,25分38秒
gsk007,2013-12-09 00:02:40,2013-12-09 00:47:52,45分12秒
gsk007,2013-12-09 00:47:52,2013-12-09 01:17:11,29分19秒
gsk007,2013-12-09 01:17:11,2013-12-09 01:27:35,10分24秒
gsk007,2013-12-09 01:27:35,2013-12-09 01:46:00,18分25秒
gsk007,2013-12-09 01:46:00,2013-12-09 02:16:46,30分46秒
gsk007,2013-12-09 02:16:46,2013-12-09 02:58:33,41分47秒
gsk007,2013-12-09 02:58:33,2013-12-09 03:49:29,50分56秒
gsk007,2013-12-09 03:49:29,2013-12-09 03:58:14,8分45秒
gsk007,2013-12-09 03:58:14,2013-12-09 04:33:54,35分40秒
gsk007,2013-12-09 04:33:54,2013-12-09 05:17:45,43分51秒
gsk007,2013-12-09 05:17:45,2013-12-09 06:24:24,1時間6分39秒
gsk007,2013-12-09 06:24:24,2013-12-09 06:43:16,18分52秒
gsk007,2013-12-09 06:43:16,2013-12-09 07:11:46,28分30秒
gsk007,2013-12-09 07:11:46,2013-12-09 07:45:40,33分54秒
gsk007,2013-12-09 07:45:40,2013-12-09 08:39:16,53分36秒
gsk007,2013-12-09 08:39:16,2013-12-09 09:04:06,24分50秒
gsk007,2013-12-09 09:38:41,2013-12-09 09:44:33,5分52秒
gsk007,2013-12-09 09:53:37,2013-12-09 10:00:09,6分32秒
gsk007,2013-12-09 10:35:41,2013-12-09 11:29:08,53分27秒
gsk007,2013-12-09 11:30:06,2013-12-09 11:35:42,5分36秒
gsk007,2013-12-09 11:37:30,2013-12-09 11:52:51,15分21秒
gsk007,2013-12-09 11:54:28,2013-12-09 12:02:44,8分16秒
gsk007,2013-12-09 12:04:11,2013-12-09 12:35:35,31分24秒
gsk007,2013-12-09 12:39:01,2013-12-09 13:41:54,1時間2分53秒
gsk007,2013-12-09 14:11:27,2013-12-09 14:26:08,14分41秒
gsk007,2013-12-09 14:26:51,2013-12-09 14:43:26,16分35秒
gsk007,2013-12-09 14:43:26,2013-12-09 15:28:24,44分58秒
gsk007,2013-12-09 15:28:24,2013-12-09 15:40:30,12分6秒
gsk007,2013-12-09 15:40:30,2013-12-09 16:00:44,20分14秒
gsk007,2013-12-09 16:01:08,2013-12-09 16:11:33,10分25秒
gsk007,2013-12-09 16:54:22,2013-12-09 17:22:44,28分22秒
gsk007,2013-12-09 17:22:56,2013-12-09 17:37:42,14分46秒
gsk007,2013-12-09 17:38:19,2013-12-09 19:27:47,1時間49分28秒
gsk007,2013-12-09 19:32:32,2013-12-09 19:49:21,16分49秒
gsk007,2013-12-09 19:55:29,2013-12-09 20:08:47,13分18秒
gsk007,2013-12-09 20:25:06,2013-12-09 21:14:01,48分55秒
gsk007,2013-12-09 22:04:38,2013-12-09 22:15:11,10分33秒
gsk007,2013-12-09 22:15:11,2013-12-10 01:05:17,2時間50分6秒
gsk007,2013-12-10 01:25:14,2013-12-10 01:31:50,6分36秒
gsk007,2013-12-10 01:33:15,2013-12-10 01:40:43,7分28秒
gsk007,2013-12-10 01:42:27,2013-12-10 02:59:06,1時間16分39秒
gsk007,2013-12-10 03:09:46,2013-12-10 03:16:58,7分12秒
gsk007,2013-12-10 03:19:20,2013-12-10 03:27:27,8分7秒
gsk007,2013-12-10 03:36:07,2013-12-10 03:43:28,7分21秒
gsk007,2013-12-10 03:45:51,2013-12-10 03:55:58,10分7秒
gsk007,2013-12-10 03:58:48,2013-12-10 04:04:59,6分11秒
gsk007,2013-12-10 04:04:59,2013-12-10 04:10:08,5分9秒
gsk007,2013-12-10 04:17:00,2013-12-10 04:30:10,13分10秒
gsk007,2013-12-10 04:30:10,2013-12-10 05:45:44,1時間15分34秒
gsk007,2013-12-10 05:45:44,2013-12-10 06:59:43,1時間13分59秒
gsk007,2013-12-10 07:19:58,2013-12-10 07:30:26,10分28秒
gsk007,2013-12-10 07:34:01,2013-12-10 07:39:33,5分32秒
gsk007,2013-12-10 07:51:34,2013-12-10 07:58:37,7分3秒
gsk007,2013-12-10 08:05:03,2013-12-10 08:10:31,5分28秒
gsk007,2013-12-10 08:10:31,2013-12-10 08:17:42,7分11秒
gsk007,2013-12-10 08:17:42,2013-12-10 08:34:08,16分26秒
gsk007,2013-12-10 08:34:08,2013-12-10 08:53:35,19分27秒
gsk007,2013-12-10 08:53:35,2013-12-10 09:03:39,10分4秒
gsk007,2013-12-10 09:03:39,2013-12-10 09:20:30,16分51秒
gsk007,2013-12-10 10:06:53,2013-12-10 12:26:23,2時間19分30秒
gsk007,2013-12-10 12:47:22,2013-12-10 12:53:38,6分16秒
gsk007,2013-12-10 13:47:55,2013-12-10 14:00:14,12分19秒
gsk007,2013-12-10 14:00:14,2013-12-10 14:08:50,8分36秒
gsk007,2013-12-10 14:09:31,2013-12-10 14:15:26,5分55秒
gsk007,2013-12-10 14:28:08,2013-12-10 14:35:31,7分23秒
gsk007,2013-12-10 14:47:47,2013-12-10 14:52:51,5分4秒
gsk007,2013-12-10 14:59:15,2013-12-10 15:08:34,9分19秒
gsk007,2013-12-10 15:08:41,2013-12-10 15:38:11,29分30秒
gsk007,2013-12-10 15:42:41,2013-12-10 15:53:52,11分11秒
gsk007,2013-12-10 16:09:16,2013-12-10 16:15:32,6分16秒
gsk007,2013-12-10 16:47:00,2013-12-10 17:35:43,48分43秒
gsk007,2013-12-10 17:52:12,2013-12-10 18:01:48,9分36秒
gsk007,2013-12-10 18:05:48,2013-12-10 18:40:15,34分27秒
gsk007,2013-12-10 18:40:15,2013-12-10 19:09:44,29分29秒
gsk007,2013-12-10 19:09:44,2013-12-10 19:46:31,36分47秒
gsk007,2013-12-10 19:46:31,2013-12-10 20:20:12,33分41秒
gsk007,2013-12-10 20:29:12,2013-12-10 20:43:12,14分
gsk007,2013-12-10 20:52:02,2013-12-10 20:57:19,5分17秒
gsk007,2013-12-10 20:57:41,2013-12-10 21:03:37,5分56秒
gsk007,2013-12-10 21:04:24,2013-12-10 21:13:49,9分25秒
gsk007,2013-12-10 21:13:49,2013-12-10 21:22:52,9分3秒
gsk007,2013-12-10 21:22:52,2013-12-10 21:46:34,23分42秒
gsk007,2013-12-10 21:46:34,2013-12-10 21:57:14,10分40秒
gsk007,2013-12-10 22:25:52,2013-12-10 22:32:21,6分29秒
gsk007,2013-12-10 22:35:32,2013-12-10 22:42:06,6分34秒
gsk007,2013-12-10 22:47:08,2013-12-10 23:13:50,26分42秒
gsk007,2013-12-10 23:16:47,2013-12-10 23:23:06,6分19秒
gsk007,2013-12-10 23:24:46,2013-12-10 23:54:08,29分22秒
gsk007,2013-12-10 23:54:08,2013-12-11 00:03:45,9分37秒
gsk007,2013-12-11 00:03:45,2013-12-11 00:24:05,20分20秒
gsk007,2013-12-11 00:24:05,2013-12-11 00:33:16,9分11秒
gsk007,2013-12-11 00:33:16,2013-12-11 00:39:45,6分29秒
gsk007,2013-12-11 00:45:00,2013-12-11 01:01:57,16分57秒
gsk007,2013-12-11 01:09:41,2013-12-11 01:28:02,18分21秒
gsk007,2013-12-11 01:28:02,2013-12-11 01:35:03,7分1秒
gsk007,2013-12-11 01:35:03,2013-12-11 02:08:54,33分51秒
gsk007,2013-12-11 02:08:54,2013-12-11 02:26:38,17分44秒
gsk007,2013-12-11 02:26:38,2013-12-11 02:50:01,23分23秒
gsk007,2013-12-11 02:50:01,2013-12-11 03:21:58,31分57秒
gsk007,2013-12-11 03:25:45,2013-12-11 03:50:16,24分31秒
gsk007,2013-12-11 03:50:16,2013-12-11 03:55:37,5分21秒
gsk007,2013-12-11 03:55:37,2013-12-11 04:05:55,10分18秒
gsk007,2013-12-11 04:05:55,2013-12-11 04:33:46,27分51秒
gsk007,2013-12-11 04:33:46,2013-12-11 04:57:19,23分33秒
gsk007,2013-12-11 04:59:49,2013-12-11 05:08:24,8分35秒
gsk007,2013-12-11 05:08:24,2013-12-11 05:59:02,50分38秒
gsk007,2013-12-11 05:59:02,2013-12-11 06:18:35,19分33秒
gsk007,2013-12-11 06:18:35,2013-12-11 06:51:05,32分30秒
gsk007,2013-12-11 06:51:05,2013-12-11 07:17:44,26分39秒
gsk007,2013-12-11 07:17:44,2013-12-11 07:44:58,27分14秒
gsk007,2013-12-11 07:44:58,2013-12-11 08:18:04,33分6秒
gsk007,2013-12-11 08:18:04,2013-12-11 08:57:18,39分14秒
gsk007,2013-12-11 09:09:13,2013-12-11 09:20:36,11分23秒
gsk007,2013-12-11 09:22:02,2013-12-11 09:27:15,5分13秒
gsk007,2013-12-11 09:27:15,2013-12-11 09:54:44,27分29秒
gsk007,2013-12-11 09:59:01,2013-12-11 10:15:04,16分3秒
gsk007,2013-12-11 10:27:23,2013-12-11 10:40:17,12分54秒
gsk007,2013-12-11 10:40:17,2013-12-11 10:46:09,5分52秒
gsk007,2013-12-11 10:46:09,2013-12-11 10:56:27,10分18秒
gsk007,2013-12-11 10:59:36,2013-12-11 11:52:30,52分54秒
gsk007,2013-12-11 12:15:49,2013-12-11 12:37:18,21分29秒
gsk007,2013-12-11 12:37:18,2013-12-11 12:42:30,5分12秒
gsk007,2013-12-11 12:55:27,2013-12-11 13:35:23,39分56秒
gsk007,2013-12-11 13:38:33,2013-12-11 13:58:02,19分29秒
gsk007,2013-12-11 13:58:02,2013-12-11 14:05:56,7分54秒
gsk007,2013-12-11 14:08:14,2013-12-11 14:19:36,11分22秒
gsk007,2013-12-11 14:44:22,2013-12-11 14:49:58,5分36秒
gsk007,2013-12-11 14:49:58,2013-12-11 14:56:05,6分7秒
gsk007,2013-12-11 15:14:32,2013-12-11 15:22:18,7分46秒
gsk007,2013-12-11 16:17:14,2013-12-11 17:22:54,1時間5分40秒
gsk007,2013-12-11 18:17:27,2013-12-11 18:27:42,10分15秒
gsk007,2013-12-11 18:27:42,2013-12-11 18:39:30,11分48秒
gsk007,2013-12-11 18:41:04,2013-12-11 18:46:10,5分6秒
gsk007,2013-12-11 18:46:10,2013-12-11 19:37:10,51分
gsk007,2013-12-11 19:46:42,2013-12-11 20:00:36,13分54秒
gsk007,2013-12-11 20:02:37,2013-12-11 20:54:36,51分59秒
gsk007,2013-12-11 20:54:36,2013-12-11 21:04:32,9分56秒
gsk007,2013-12-11 21:04:32,2013-12-11 21:20:48,16分16秒
gsk007,2013-12-11 21:20:48,2013-12-11 21:36:38,15分50秒
gsk007,2013-12-11 21:36:38,2013-12-11 21:47:52,11分14秒
gsk007,2013-12-11 21:56:53,2013-12-11 22:10:21,13分28秒
gsk007,2013-12-11 22:26:50,2013-12-11 22:44:34,17分44秒
gsk007,2013-12-11 22:55:21,2013-12-11 23:04:52,9分31秒
gsk007,2013-12-11 23:08:48,2013-12-11 23:15:51,7分3秒
gsk007,2013-12-11 23:18:57,2013-12-11 23:38:23,19分26秒
gsk007,2013-12-11 23:44:16,2013-12-12 00:00:16,16分
gsk007,2013-12-12 01:20:34,2013-12-12 01:37:46,17分12秒
gsk007,2013-12-12 01:37:46,2013-12-12 01:47:46,10分
gsk007,2013-12-12 01:47:54,2013-12-12 02:25:14,37分20秒
gsk007,2013-12-12 02:25:14,2013-12-12 02:43:38,18分24秒
gsk007,2013-12-12 02:43:38,2013-12-12 02:59:17,15分39秒
gsk007,2013-12-12 03:11:05,2013-12-12 03:16:06,5分1秒
gsk007,2013-12-12 03:16:06,2013-12-12 03:32:32,16分26秒
gsk007,2013-12-12 03:37:15,2013-12-12 03:45:02,7分47秒
gsk007,2013-12-12 03:48:05,2013-12-12 03:59:09,11分4秒
gsk007,2013-12-12 04:05:56,2013-12-12 04:11:41,5分45秒
gsk007,2013-12-12 04:14:09,2013-12-12 04:21:57,7分48秒
gsk007,2013-12-12 04:21:57,2013-12-12 04:56:06,34分9秒
gsk007,2013-12-12 05:13:25,2013-12-12 05:20:28,7分3秒
gsk007,2013-12-12 05:20:28,2013-12-12 05:26:30,6分2秒
gsk007,2013-12-12 05:26:30,2013-12-12 05:31:50,5分20秒
gsk007,2013-12-12 05:31:50,2013-12-12 06:03:52,32分2秒
gsk007,2013-12-12 06:03:52,2013-12-12 06:11:49,7分57秒
gsk007,2013-12-12 06:13:29,2013-12-12 06:23:54,10分25秒
gsk007,2013-12-12 06:23:54,2013-12-12 06:30:16,6分22秒
gsk007,2013-12-12 06:30:16,2013-12-12 06:42:06,11分50秒
gsk007,2013-12-12 06:42:06,2013-12-12 06:54:12,12分6秒
gsk007,2013-12-12 06:54:12,2013-12-12 07:25:41,31分29秒
gsk007,2013-12-12 07:25:41,2013-12-12 07:58:37,32分56秒
gsk007,2013-12-12 07:58:37,2013-12-12 08:38:41,40分4秒
gsk007,2013-12-12 08:38:41,2013-12-12 08:59:56,21分15秒
gsk007,2013-12-12 08:59:56,2013-12-12 09:29:17,29分21秒
gsk007,2013-12-12 09:29:17,2013-12-12 09:39:08,9分51秒
gsk007,2013-12-12 09:39:08,2013-12-12 09:51:54,12分46秒
gsk007,2013-12-12 10:19:13,2013-12-12 10:26:24,7分11秒
gsk007,2013-12-12 10:38:22,2013-12-12 17:53:52,7時間15分30秒
gsk007,2013-12-12 18:31:57,2013-12-12 20:19:46,1時間47分49秒
gsk007,2013-12-12 20:20:45,2013-12-12 20:49:54,29分9秒
gsk007,2013-12-12 20:50:20,2013-12-12 20:58:38,8分18秒
gsk007,2013-12-12 21:53:54,2013-12-12 22:00:33,6分39秒
gsk007,2013-12-12 22:02:32,2013-12-12 22:53:46,51分14秒
gsk007,2013-12-12 22:55:26,2013-12-12 23:04:09,8分43秒
gsk007,2013-12-12 23:05:54,2013-12-12 23:47:08,41分14秒
gsk007,2013-12-13 00:27:08,2013-12-13 00:37:53,10分45秒
gsk007,2013-12-13 01:01:32,2013-12-13 01:08:30,6分58秒
gsk007,2013-12-13 01:08:30,2013-12-13 01:14:47,6分17秒
gsk007,2013-12-13 01:14:47,2013-12-13 01:47:07,32分20秒
gsk007,2013-12-13 01:47:07,2013-12-13 01:57:51,10分44秒
gsk007,2013-12-13 01:57:51,2013-12-13 02:20:41,22分50秒
gsk007,2013-12-13 02:20:41,2013-12-13 03:29:21,1時間8分40秒
gsk007,2013-12-13 03:29:21,2013-12-13 04:20:31,51分10秒
gsk007,2013-12-13 04:20:31,2013-12-13 06:24:56,2時間4分25秒
gsk007,2013-12-13 06:25:10,2013-12-13 10:00:30,3時間35分20秒
gsk007,2013-12-13 10:41:00,2013-12-13 12:12:52,1時間31分52秒
gsk007,2013-12-13 12:56:55,2013-12-13 14:27:55,1時間31分
gsk007,2013-12-13 14:29:05,2013-12-13 14:35:08,6分3秒
gsk007,2013-12-13 14:37:00,2013-12-13 14:46:22,9分22秒
gsk007,2013-12-13 14:47:11,2013-12-13 14:54:13,7分2秒
gsk007,2013-12-13 15:30:57,2013-12-13 15:36:07,5分10秒
gsk007,2013-12-13 15:43:54,2013-12-13 15:51:34,7分40秒
gsk007,2013-12-13 15:54:00,2013-12-13 16:01:44,7分44秒
gsk007,2013-12-13 16:02:03,2013-12-13 16:08:11,6分8秒
gsk007,2013-12-13 16:08:41,2013-12-13 17:11:22,1時間2分41秒
gsk007,2013-12-13 17:20:41,2013-12-13 17:26:50,6分9秒
gsk007,2013-12-13 17:51:40,2013-12-13 17:57:23,5分43秒
gsk007,2013-12-13 17:57:23,2013-12-13 18:07:24,10分1秒
gsk007,2013-12-13 18:07:24,2013-12-13 18:39:27,32分3秒
gsk007,2013-12-13 18:39:27,2013-12-13 19:11:25,31分58秒
gsk007,2013-12-13 19:11:25,2013-12-13 19:57:45,46分20秒
gsk007,2013-12-13 19:57:45,2013-12-13 20:18:05,20分20秒
gsk007,2013-12-13 20:18:05,2013-12-13 20:50:11,32分6秒
gsk007,2013-12-13 20:50:11,2013-12-13 21:21:42,31分31秒
gsk007,2013-12-13 21:21:42,2013-12-13 21:54:56,33分14秒
gsk007,2013-12-13 22:09:45,2013-12-13 22:19:07,9分22秒
gsk007,2013-12-13 22:34:18,2013-12-13 22:45:43,11分25秒
gsk007,2013-12-13 22:45:43,2013-12-13 23:15:25,29分42秒
gsk007,2013-12-13 23:15:59,2013-12-13 23:28:58,12分59秒
gsk008,2013-12-04 15:10:44,2013-12-04 15:32:22,21分38秒
gsk008,2013-12-04 16:23:28,2013-12-05 18:11:08,25時間47分40秒
gsk008,2013-12-05 18:11:08,2013-12-05 19:08:02,56分54秒
gsk008,2013-12-05 19:28:53,2013-12-05 19:36:10,7分17秒
gsk008,2013-12-05 19:36:12,2013-12-05 19:44:07,7分55秒
gsk008,2013-12-05 19:44:09,2013-12-05 19:52:59,8分50秒
gsk008,2013-12-05 19:54:11,2013-12-05 20:00:04,5分53秒
gsk008,2013-12-05 20:27:54,2013-12-05 20:33:46,5分52秒
gsk008,2013-12-05 20:47:55,2013-12-05 21:24:10,36分15秒
gsk008,2013-12-05 21:56:32,2013-12-06 09:26:52,11時間30分20秒
gsk008,2013-12-06 09:37:24,2013-12-06 20:25:22,10時間47分58秒
gsk008,2013-12-06 20:27:35,2013-12-06 20:33:39,6分4秒
gsk008,2013-12-06 20:54:31,2013-12-07 10:14:27,13時間19分56秒
gsk008,2013-12-07 10:18:32,2013-12-07 11:14:52,56分20秒
gsk008,2013-12-07 11:14:53,2013-12-07 11:43:29,28分36秒
gsk008,2013-12-07 12:08:34,2013-12-07 12:13:59,5分25秒
gsk008,2013-12-07 12:51:47,2013-12-07 13:00:53,9分6秒
gsk008,2013-12-07 13:01:09,2013-12-07 19:07:17,6時間6分8秒
gsk008,2013-12-07 19:15:05,2013-12-07 20:39:20,1時間24分15秒
gsk008,2013-12-07 20:55:34,2013-12-08 11:09:33,14時間13分59秒
gsk008,2013-12-08 11:47:41,2013-12-08 12:24:39,36分58秒
gsk008,2013-12-08 12:51:59,2013-12-08 13:01:50,9分51秒
gsk008,2013-12-08 13:49:23,2013-12-08 14:28:52,39分29秒
gsk008,2013-12-08 14:58:07,2013-12-09 19:32:20,28時間34分13秒
gsk008,2013-12-09 19:47:34,2013-12-09 19:55:28,7分54秒
gsk008,2013-12-09 20:20:09,2013-12-09 20:25:20,5分11秒
gsk008,2013-12-09 20:25:32,2013-12-09 20:33:45,8分13秒
gsk008,2013-12-09 21:53:22,2013-12-09 21:59:40,6分18秒
gsk008,2013-12-09 21:59:50,2013-12-09 22:22:36,22分46秒
gsk008,2013-12-09 22:22:42,2013-12-09 22:29:39,6分57秒
gsk008,2013-12-09 22:40:39,2013-12-09 22:47:29,6分50秒
gsk008,2013-12-09 22:50:04,2013-12-09 23:01:35,11分31秒
gsk008,2013-12-09 23:46:47,2013-12-10 14:23:32,14時間36分45秒
gsk008,2013-12-10 14:36:09,2013-12-11 15:04:29,24時間28分20秒
gsk008,2013-12-11 15:16:13,2013-12-12 19:06:17,27時間50分4秒
gsk008,2013-12-12 19:35:44,2013-12-12 22:38:21,3時間2分37秒
gsk008,2013-12-12 22:42:35,2013-12-13 13:20:04,14時間37分29秒
gsk008,2013-12-13 13:30:49,2013-12-13 14:42:06,1時間11分17秒
gsk008,2013-12-13 14:58:45,2013-12-13 16:19:02,1時間20分17秒
gsk008,2013-12-13 16:51:27,2013-12-13 16:56:50,5分23秒
gsk008,2013-12-13 16:57:32,2013-12-13 18:37:20,1時間39分48秒
gsk008,2013-12-13 18:38:39,2013-12-13 18:48:24,9分45秒
gsk009,2013-12-03 19:27:42,2013-12-04 12:00:24,16時間32分42秒
gsk009,2013-12-04 12:00:24,2013-12-04 12:07:09,6分45秒
gsk009,2013-12-04 12:20:31,2013-12-04 12:25:57,5分26秒
gsk009,2013-12-04 12:34:29,2013-12-04 17:29:48,4時間55分19秒
gsk009,2013-12-04 18:01:50,2013-12-04 20:36:00,2時間34分10秒
gsk009,2013-12-04 20:36:00,2013-12-05 05:33:50,8時間57分50秒
gsk009,2013-12-05 06:36:18,2013-12-05 06:49:56,13分38秒
gsk009,2013-12-05 06:56:08,2013-12-05 16:01:25,9時間5分17秒
gsk009,2013-12-05 16:03:16,2013-12-05 19:06:25,3時間3分9秒
gsk009,2013-12-05 19:49:57,2013-12-06 12:07:42,16時間17分45秒
gsk009,2013-12-06 12:48:24,2013-12-06 17:43:31,4時間55分7秒
gsk009,2013-12-06 17:45:51,2013-12-06 17:52:18,6分27秒
gsk009,2013-12-06 18:27:50,2013-12-07 11:38:53,17時間11分3秒
gsk009,2013-12-07 12:11:53,2013-12-07 18:57:33,6時間45分40秒
gsk009,2013-12-07 18:59:33,2013-12-07 19:05:58,6分25秒
gsk009,2013-12-07 19:32:12,2013-12-08 16:31:29,20時間59分17秒
gsk009,2013-12-08 16:31:29,2013-12-08 17:17:43,46分14秒
gsk009,2013-12-08 17:23:41,2013-12-08 17:30:41,7分
gsk009,2013-12-08 17:33:26,2013-12-08 18:01:19,27分53秒
gsk009,2013-12-08 18:01:19,2013-12-08 18:23:07,21分48秒
gsk009,2013-12-08 18:23:07,2013-12-08 20:02:21,1時間39分14秒
gsk009,2013-12-08 20:10:08,2013-12-08 20:50:38,40分30秒
gsk009,2013-12-08 20:50:38,2013-12-09 16:19:10,19時間28分32秒
gsk009,2013-12-09 16:19:10,2013-12-09 17:56:44,1時間37分34秒
gsk009,2013-12-09 17:59:39,2013-12-09 18:06:58,7分19秒
gsk009,2013-12-09 18:09:29,2013-12-10 04:03:43,9時間54分14秒
gsk009,2013-12-10 06:30:50,2013-12-10 06:36:04,5分14秒
gsk009,2013-12-10 06:36:04,2013-12-10 06:42:40,6分36秒
gsk009,2013-12-10 06:58:09,2013-12-10 12:20:39,5時間22分30秒
gsk009,2013-12-10 14:46:40,2013-12-10 21:13:32,6時間26分52秒
gsk009,2013-12-10 21:22:01,2013-12-10 21:27:29,5分28秒
gsk009,2013-12-10 22:34:23,2013-12-11 12:06:35,13時間32分12秒
gsk009,2013-12-11 12:46:19,2013-12-11 17:40:42,4時間54分23秒
gsk009,2013-12-11 18:23:28,2013-12-12 01:44:33,7時間21分5秒
gsk009,2013-12-12 04:03:37,2013-12-12 19:12:10,15時間8分33秒
gsk009,2013-12-12 21:45:43,2013-12-13 12:01:15,14時間15分32秒
gsk009,2013-12-13 12:47:30,2013-12-13 13:03:41,16分11秒
gsk009,2013-12-13 13:09:09,2013-12-13 16:37:14,3時間28分5秒
gsk009,2013-12-13 16:50:18,2013-12-13 23:06:57,6時間16分39秒
gsk010,2013-12-03 23:26:21,2013-12-04 10:24:57,10時間58分36秒
gsk010,2013-12-04 10:31:31,2013-12-04 10:41:48,10分17秒
gsk010,2013-12-04 10:49:16,2013-12-04 16:35:58,5時間46分42秒
gsk010,2013-12-04 16:44:28,2013-12-04 16:54:47,10分19秒
gsk010,2013-12-04 16:55:29,2013-12-04 17:28:04,32分35秒
gsk010,2013-12-04 17:35:06,2013-12-05 15:11:57,21時間36分51秒
gsk010,2013-12-05 15:21:04,2013-12-05 15:31:02,9分58秒
gsk010,2013-12-05 16:00:21,2013-12-05 16:05:33,5分12秒
gsk010,2013-12-05 16:30:01,2013-12-05 21:09:55,4時間39分54秒
gsk010,2013-12-05 21:12:02,2013-12-05 22:08:35,56分33秒
gsk010,2013-12-05 22:15:08,2013-12-06 14:55:44,16時間40分36秒
gsk010,2013-12-06 15:17:32,2013-12-06 15:33:16,15分44秒
gsk010,2013-12-06 15:37:00,2013-12-06 15:49:48,12分48秒
gsk010,2013-12-06 18:39:56,2013-12-08 18:08:16,47時間28分20秒
gsk010,2013-12-08 18:47:50,2013-12-08 18:55:21,7分31秒
gsk010,2013-12-08 19:04:03,2013-12-08 19:14:01,9分58秒
gsk010,2013-12-08 19:14:16,2013-12-09 08:43:56,13時間29分40秒
gsk010,2013-12-09 10:37:15,2013-12-09 10:53:36,16分21秒
gsk010,2013-12-09 10:54:45,2013-12-09 11:34:55,40分10秒
gsk010,2013-12-09 11:52:01,2013-12-09 12:54:45,1時間2分44秒
gsk010,2013-12-09 13:19:47,2013-12-10 13:02:15,23時間42分28秒
gsk010,2013-12-10 13:17:14,2013-12-10 17:39:33,4時間22分19秒
gsk010,2013-12-10 17:53:10,2013-12-10 18:15:31,22分21秒
gsk010,2013-12-10 19:03:04,2013-12-10 22:20:24,3時間17分20秒
gsk010,2013-12-10 22:29:11,2013-12-11 14:50:00,16時間20分49秒
gsk010,2013-12-11 15:11:57,2013-12-11 15:19:40,7分43秒
gsk010,2013-12-11 15:41:44,2013-12-12 10:24:10,18時間42分26秒
gsk010,2013-12-12 10:34:17,2013-12-12 10:40:19,6分2秒
gsk010,2013-12-12 10:51:07,2013-12-12 16:06:48,5時間15分41秒
gsk010,2013-12-12 16:18:54,2013-12-12 19:05:22,2時間46分28秒
gsk010,2013-12-12 19:46:51,2013-12-13 12:58:22,17時間11分31秒
gsk010,2013-12-13 13:12:01,2013-12-13 14:52:10,1時間40分9秒
gsk010,2013-12-13 14:58:14,2013-12-13 17:04:12,2時間5分58秒
gsk010,2013-12-13 17:10:36,2013-12-13 17:17:51,7分15秒
